Time	Iteration	AverageReturn	StdReturn	MaxReturn	MinReturn	EpLenMean	EpLenStd	TimestepsThisBatch	TimestepsSoFar
44.3134286403656	0	-258.0398	136.56131	129.16109	-781.3231	120.34834834834835	33.78494038727531	40076	40076
90.84201216697693	1	-179.9979	119.33586	209.61946	-522.88226	120.88253012048193	59.07684445046972	40133	80209
135.79500365257263	2	-149.81236	104.871	185.12927	-493.3848	113.06214689265536	59.962903616153525	40024	120233
182.6598310470581	3	-136.64217	100.95788	214.99792	-469.8216	115.07163323782235	55.637210270407245	40160	160393
228.16049981117249	4	-125.660675	94.3609	208.95589	-385.56088	118.22713864306785	60.97781187268192	40079	200472
274.5212392807007	5	-119.81919	87.19388	186.17781	-376.7237	122.33639143730886	57.68163697807674	40004	240476
320.79604053497314	6	-97.104774	97.716255	180.22647	-337.21255	130.11363636363637	44.91720459462099	40075	280551
367.15626764297485	7	-86.850136	107.847984	206.28732	-424.04688	131.11111111111111	50.08575072376192	40120	320671
420.39758706092834	8	-83.812515	114.92019	216.40768	-346.99695	150.50375939849624	89.51621217134928	40034	360705
485.4489176273346	9	-89.969696	105.89742	194.25316	-337.96683	184.58904109589042	138.94282871595755	40425	401130
548.368408203125	10	-80.208115	114.11544	183.36037	-321.2989	198.80693069306932	141.0267419043761	40159	441289
620.129326581955	11	-48.76546	123.89667	196.08553	-359.10236	259.92857142857144	182.70841531749247	40029	481318
704.0103240013123	12	-45.94646	121.11621	230.82486	-283.09604	305.793893129771	222.13982659155465	40059	521377
800.0848567485809	13	-48.96648	130.83365	222.53128	-341.66235	379.26851851851853	283.4606448116995	40961	562338
891.8051323890686	14	32.456944	129.40404	218.67363	-349.72815	417.1145833333333	266.3651499739779	40043	602381
985.7209560871124	15	38.824116	122.951195	226.99075	-279.20486	404.949494949495	278.8853127205879	40090	642471
1092.6661541461945	16	40.155033	122.700134	240.72389	-224.5775	469.6551724137931	315.87305858511075	40860	683331
1201.5783505439758	17	22.459648	136.50069	225.60963	-318.24246	469.1609195402299	326.63793705109265	40817	724148
1314.718088388443	18	20.677214	144.46526	206.39098	-540.19714	495.34567901234567	340.187826133197	40123	764271
1435.7108852863312	19	38.216778	129.85603	223.49167	-347.65012	511.15	345.1075230996855	40892	805163
1541.3196852207184	20	48.62196	125.4628	231.43053	-292.17114	415.319587628866	310.7527789358042	40286	845449
1648.1901733875275	21	63.371567	130.47366	245.16884	-356.4525	413.35051546391753	313.5305783024395	40095	885544
1749.3822338581085	22	57.279743	132.01433	225.02905	-331.99203	353.76521739130436	279.0042022571106	40683	926227
1839.3687624931335	23	87.994286	116.10881	238.73038	-125.57562	303.27272727272725	240.09199912549593	40032	966259
1936.934128522873	24	69.15735	125.48493	252.08406	-231.22473	343.53846153846155	281.6159274117714	40194	1006453
2018.0322613716125	25	89.09082	115.51375	256.21457	-250.45168	274.52054794520546	228.7069435241049	40080	1046533
2091.153155565262	26	108.2169	105.692116	235.64548	-104.23158	229.46067415730337	156.88789070935624	40844	1087377
2164.290123462677	27	98.64494	110.966736	234.02995	-143.81517	234.26315789473685	172.17299130542207	40059	1127436
2240.2640693187714	28	122.534706	100.52464	249.87341	-140.72891	250.9375	194.06360708218838	40150	1167586
2301.5128066539764	29	116.98716	105.2901	241.47617	-256.91782	216.45945945945945	121.21756063010517	40045	1207631
2373.382851600647	30	119.35716	101.13157	248.89027	-96.0329	238.70238095238096	157.8599273438251	40102	1247733
2444.527579307556	31	127.47165	94.38901	244.29848	-96.82302	245.46012269938652	165.26692465602733	40010	1287743
2508.375983476639	32	138.66278	95.50178	233.72919	-299.9186	227.4431818181818	127.2517956610709	40030	1327773
2576.594293832779	33	143.50014	84.93473	257.50983	-98.12097	240.49101796407186	144.15937904288302	40162	1367935
2640.1717364788055	34	164.55005	70.98366	258.51355	-225.3434	226.35593220338984	114.52171669492414	40065	1408000
2715.691206932068	35	150.1741	86.49131	249.14172	-136.9516	248.6335403726708	192.01315591059188	40030	1448030
2800.192460298538	36	148.39998	98.36735	252.62091	-285.80408	260.0584415584416	214.94303796959147	40049	1488079
2871.7492599487305	37	144.29253	97.272125	240.4971	-300.09113	238.33333333333334	165.55414402295887	40040	1528119
2962.57253074646	38	153.05257	89.97114	247.7456	-104.520805	277.26206896551724	243.6984575585349	40203	1568322
3047.288469314575	39	135.72803	108.46629	250.73424	-340.98227	274.0753424657534	235.1041181653511	40015	1608337
3137.054913043976	40	151.39104	90.12012	242.30547	-114.607445	269.26174496644296	232.83846392191916	40120	1648457
3243.351293325424	41	125.31388	112.44501	241.52948	-312.9777	300.94736842105266	272.40950255000456	40026	1688483
3353.16179227829	42	127.35417	116.75198	242.05124	-378.7902	342.77777777777777	304.2200651718775	40105	1728588
3472.0666024684906	43	102.676254	126.98427	232.43796	-424.64343	380.3679245283019	341.6722286071152	40319	1768907
3589.644065141678	44	99.66651	119.06942	224.9812	-133.79262	380.9714285714286	342.2486274526127	40002	1808909
3713.651497364044	45	110.585396	118.80013	257.21844	-172.6051	397.9009900990099	340.7303020159654	40188	1849097
3834.779911518097	46	119.89766	109.40818	245.49796	-163.29993	414.2371134020619	347.73632543157936	40181	1889278
3941.365109205246	47	136.57953	98.86447	237.11938	-128.43234	335.8833333333333	294.15432976963336	40306	1929584
4035.0270540714264	48	157.62135	90.385345	249.03323	-179.07635	296.4	230.17465832131333	40014	1969598
4126.327018737793	49	150.64262	94.30955	260.0924	-173.17245	288.76978417266184	233.4419748754846	40139	2009737
4200.785646438599	50	170.19844	76.79096	252.02335	-297.9296	241.74096385542168	156.81940079767193	40129	2049866
4269.146462678909	51	165.48328	83.15668	257.03406	-192.60333	229.2057142857143	144.88562177082434	40111	2089977
4330.76917719841	52	168.60474	73.94465	259.64087	-197.06726	202.73737373737373	103.54846480175222	40142	2130119
4402.435918807983	53	171.8442	67.194725	252.45459	-174.65018	207.7680412371134	144.93333984717262	40307	2170426
4470.381997823715	54	166.86688	77.08449	254.22581	-273.9831	196.16176470588235	131.20276296119118	40017	2210443
4531.1813843250275	55	168.75233	74.462036	257.5454	-97.92927	183.33333333333334	118.15230219703577	40150	2250593
4610.912487268448	56	161.5513	82.84125	251.27106	-198.07112	196.91346153846155	164.46572068466256	40958	2291551
4686.311311483383	57	161.0443	77.94915	258.15125	-192.77278	191.48356807511738	162.6124340897773	40786	2332337
4753.906535863876	58	152.2391	84.062256	247.70428	-123.467735	180.47747747747746	136.29379017579535	40066	2372403
4812.800730705261	59	147.1426	96.539986	263.89792	-221.05913	173.7229437229437	111.12946835855394	40130	2412533
4886.864397764206	60	147.92528	90.517235	250.04199	-105.190125	195.67317073170733	161.09765410532563	40113	2452646
4952.71041226387	61	161.17935	79.68878	255.51149	-99.1942	195.19024390243902	140.21397551317344	40014	2492660
5036.891011238098	62	143.48784	96.3443	254.08401	-340.8442	235.8294117647059	211.8680784459043	40091	2532751
5110.485811710358	63	176.59724	60.55798	253.28241	-87.72955	210.67894736842106	149.14859097009818	40029	2572780
5176.556268930435	64	169.86278	79.22876	259.0805	-337.55936	209.11979166666666	125.16160896333162	40151	2612931
5260.84400510788	65	168.4445	78.583725	253.83221	-129.776	248.7888198757764	217.33648554612034	40055	2652986
5338.381554365158	66	169.86569	76.37905	256.6457	-125.87904	226.180790960452	181.01818453911656	40034	2693020
5426.587686061859	67	166.37213	79.844284	253.65186	-173.39714	267.43333333333334	227.1995720848865	40115	2733135
5508.291103839874	68	173.25969	71.95459	251.734	-92.33471	251.11875	205.05899675078268	40179	2773314
5598.884334564209	69	175.56082	73.790855	260.6737	-138.09984	269.5503355704698	235.813498035189	40163	2813477
5672.309915304184	70	182.28491	62.554436	259.00256	-129.13248	224.80337078651687	157.89105399755246	40015	2853492
5734.475735425949	71	188.57137	48.17095	262.8788	-108.737724	207.7461139896373	105.21176670303835	40095	2893587
5792.4590656757355	72	191.92018	40.843582	249.90521	-184.62231	197.74384236453201	68.84954252875252	40142	2933729
5847.50244474411	73	194.28816	31.198103	269.3632	-88.80147	190.92857142857142	29.55881373444738	40095	2973824
5904.135096073151	74	192.83011	47.85848	265.9442	-81.42706	190.0	60.38423572564793	40090	3013914
5966.099357128143	75	186.99052	46.14728	246.48494	-73.29444	194.49514563106797	115.10719982765308	40066	3053980
6035.980784893036	76	178.57768	66.593	251.07071	-96.49211	204.46938775510205	156.32333081395117	40076	3094056
6115.806486606598	77	168.25592	79.2101	267.55896	-343.81555	226.6045197740113	213.0961470538033	40109	3134165
6187.466889381409	78	157.50128	89.360275	249.33778	-97.28996	203.75252525252526	184.13311601342932	40343	3174508
6244.61679983139	79	158.16736	87.674324	250.06107	-120.70981	200.405	185.10210959089582	40081	3214589
6302.357788562775	80	156.22345	84.78627	270.09106	-112.21845	202.11111111111111	194.86438635231016	40018	3254607
6365.177755117416	81	148.44872	85.276474	251.65277	-69.46106	234.30409356725147	249.07781009218533	40066	3294673
6413.618476390839	82	142.48557	95.07155	255.33676	-82.585915	210.7736842105263	212.24942214813228	40047	3334720
6456.496584177017	83	155.56996	87.03621	258.55533	-118.883255	193.94685990338164	175.87457673395414	40147	3374867
6495.110168933868	84	165.3728	80.633545	259.91095	-338.07092	176.72687224669605	117.20006363756326	40117	3414984
6534.383373498917	85	159.94936	80.10635	250.57736	-109.514206	193.1196172248804	149.95348576367422	40362	3455346
6571.5827622413635	86	180.46219	61.50828	251.72629	-124.59992	179.4394618834081	113.40571502621592	40015	3495361
6607.905712127686	87	191.97797	43.14429	266.66983	-41.81408	179.95515695067266	97.45684457298701	40130	3535491
6642.772295713425	88	190.05757	44.618927	255.0155	-49.313576	176.80176211453744	61.704856665436	40134	3575625
6676.2113535404205	89	187.42047	63.111645	264.56604	-382.67584	172.24463519313304	20.31945047941432	40133	3615758
6709.48392701149	90	195.26602	32.93091	278.03836	-79.711815	171.19230769230768	19.26139868467347	40059	3655817
6742.933373451233	91	196.42696	48.742195	259.2644	-359.21918	171.38888888888889	19.939825191810534	40105	3695922
6776.423458576202	92	194.28188	32.819252	265.74585	-48.960213	168.84810126582278	21.62633685490673	40017	3735939
6813.520170450211	93	186.61917	49.7563	261.49725	-133.47824	177.0929203539823	91.36775463502839	40023	3775962
6852.830396652222	94	184.7009	61.88139	266.44073	-445.7301	179.29777777777778	114.56672095603192	40342	3816304
6885.628266096115	95	182.97081	57.014603	267.0009	-128.92055	161.8951612903226	27.103391809045426	40150	3856454
6918.228064537048	96	179.12642	60.88556	263.15063	-83.11961	158.19762845849803	21.37784662662732	40024	3896478
6956.077980995178	97	183.71861	57.914326	263.16757	-116.23278	168.44957983193277	95.84728081338174	40091	3936569
6988.26060962677	98	182.32277	67.09543	258.20825	-337.34113	153.71264367816093	20.529340583947942	40119	3976688
7020.593709945679	99	186.63254	57.782475	268.68893	-115.89516	158.11417322834646	20.493679549602675	40161	4016849
