{"animate"	:	false,
"env_name"	:	"InvertedPendulum-v2",
"exp_name"	:	"hc_b5000_r0.005",
"gamma"	:	0.9,
"learning_rate"	:	0.01,
"logdir"	:	"data/hc_b5000_r0.005_InvertedPendulum-v2_08-10-2018_19-03-23/21",
"max_path_length"	:	1000.0,
"min_timesteps_per_batch"	:	5000,
"n_iter"	:	100,
"n_layers"	:	2,
"nn_baseline"	:	false,
"normalize_advantages"	:	true,
"reward_to_go"	:	true,
"seed"	:	21,
"size"	:	64}