{"animate"	:	true,
"env_name"	:	"LunarLanderContinuous-v2",
"exp_name"	:	"ll_b40000_r0.005",
"gamma"	:	0.99,
"learning_rate"	:	0.005,
"logdir"	:	"data/ll_b40000_r0.005_LunarLanderContinuous-v2_08-10-2018_11-52-38/1",
"max_path_length"	:	1000.0,
"min_timesteps_per_batch"	:	40000,
"n_iter"	:	100,
"n_layers"	:	2,
"nn_baseline"	:	false,
"normalize_advantages"	:	true,
"reward_to_go"	:	true,
"seed"	:	1,
"size"	:	64}