Time	Iteration	AverageReturn	StdReturn	MaxReturn	MinReturn	EpLenMean	EpLenStd	TimestepsThisBatch	TimestepsSoFar
0.809884786605835	0	15.430769	4.68375	31.0	8.0	15.430769230769231	4.683750077971647	1003	1003
1.2180910110473633	1	25.15	15.752063	98.0	10.0	25.15	15.752063356906612	1006	2009
1.5823423862457275	2	44.416668	22.287733	110.0	16.0	44.416666666666664	22.287733297837978	1066	3075
1.933441162109375	3	59.941177	28.833132	144.0	25.0	59.94117647058823	28.8331316538606	1019	4094
2.295525312423706	4	70.066666	33.06653	147.0	28.0	70.06666666666666	33.066532257791344	1051	5145
2.666761875152588	5	97.63636	48.189537	178.0	43.0	97.63636363636364	48.18953626005005	1074	6219
3.0515220165252686	6	123.0	54.623966	200.0	45.0	123.0	54.6239670637146	1107	7326
3.4388973712921143	7	159.85715	31.719433	200.0	114.0	159.85714285714286	31.719433301677885	1119	8445
3.8274617195129395	8	151.85715	34.169445	200.0	114.0	151.85714285714286	34.169445714090294	1063	9508
4.22459077835083	9	163.57143	33.969975	200.0	111.0	163.57142857142858	33.969974737604225	1145	10653
4.593109369277954	10	149.71428	29.22677	200.0	105.0	149.71428571428572	29.226769948672967	1048	11701
4.973598003387451	11	181.16667	20.251886	200.0	148.0	181.16666666666666	20.25188605757224	1087	12788
5.378505229949951	12	184.5	24.91151	200.0	133.0	184.5	24.91151005726737	1107	13895
5.748765468597412	13	181.33333	35.84535	200.0	102.0	181.33333333333334	35.84534682338684	1088	14983
6.140997886657715	14	196.33333	5.6764627	200.0	185.0	196.33333333333334	5.676462121975467	1178	16161
6.497692346572876	15	178.5	30.960997	200.0	120.0	178.5	30.960996969305324	1071	17232
6.899597406387329	16	194.0	9.660918	200.0	174.0	194.0	9.66091783079296	1164	18396
7.319375991821289	17	200.0	0.0	200.0	200.0	200.0	0.0	1200	19596
7.740899085998535	18	200.0	0.0	200.0	200.0	200.0	0.0	1200	20796
8.150372982025146	19	195.83333	6.9860973	200.0	181.0	195.83333333333334	6.986097305044895	1175	21971
8.568626642227173	20	200.0	0.0	200.0	200.0	200.0	0.0	1200	23171
8.957279205322266	21	190.16667	12.5222025	200.0	165.0	190.16666666666666	12.522202504174556	1141	24312
9.367011785507202	22	200.0	0.0	200.0	200.0	200.0	0.0	1200	25512
9.782028913497925	23	200.0	0.0	200.0	200.0	200.0	0.0	1200	26712
10.159832954406738	24	183.16667	28.649702	200.0	120.0	183.16666666666666	28.649704283911127	1099	27811
10.574512243270874	25	198.83333	2.608746	200.0	193.0	198.83333333333334	2.6087459737497545	1193	29004
10.96821117401123	26	191.0	20.12461	200.0	146.0	191.0	20.12461179749811	1146	30150
11.384664058685303	27	200.0	0.0	200.0	200.0	200.0	0.0	1200	31350
11.805545091629028	28	200.0	0.0	200.0	200.0	200.0	0.0	1200	32550
12.221370935440063	29	200.0	0.0	200.0	200.0	200.0	0.0	1200	33750
12.63820195198059	30	200.0	0.0	200.0	200.0	200.0	0.0	1200	34950
13.056084394454956	31	200.0	0.0	200.0	200.0	200.0	0.0	1200	36150
13.459879398345947	32	197.5	5.59017	200.0	185.0	197.5	5.5901699437494745	1185	37335
13.84972620010376	33	189.16667	24.224072	200.0	135.0	189.16666666666666	24.224069756247722	1135	38470
14.269595861434937	34	200.0	0.0	200.0	200.0	200.0	0.0	1200	39670
14.67936658859253	35	200.0	0.0	200.0	200.0	200.0	0.0	1200	40870
15.093977451324463	36	200.0	0.0	200.0	200.0	200.0	0.0	1200	42070
15.498661041259766	37	195.0	11.18034	200.0	170.0	195.0	11.180339887498949	1170	43240
15.917215824127197	38	200.0	0.0	200.0	200.0	200.0	0.0	1200	44440
16.332942247390747	39	200.0	0.0	200.0	200.0	200.0	0.0	1200	45640
16.74528217315674	40	200.0	0.0	200.0	200.0	200.0	0.0	1200	46840
17.148743152618408	41	200.0	0.0	200.0	200.0	200.0	0.0	1200	48040
17.539247512817383	42	188.66667	25.342104	200.0	132.0	188.66666666666666	25.34210374499762	1132	49172
17.953899383544922	43	200.0	0.0	200.0	200.0	200.0	0.0	1200	50372
18.368643522262573	44	199.5	1.118034	200.0	197.0	199.5	1.118033988749895	1197	51569
18.77823829650879	45	199.33333	1.490712	200.0	196.0	199.33333333333334	1.4907119849998598	1196	52765
19.1464741230011	46	187.33333	28.323524	200.0	124.0	187.33333333333334	28.323527714997336	1124	53889
19.55722165107727	47	199.5	1.118034	200.0	197.0	199.5	1.118033988749895	1197	55086
19.96763849258423	48	200.0	0.0	200.0	200.0	200.0	0.0	1200	56286
20.382330894470215	49	200.0	0.0	200.0	200.0	200.0	0.0	1200	57486
20.80117654800415	50	200.0	0.0	200.0	200.0	200.0	0.0	1200	58686
21.21371030807495	51	200.0	0.0	200.0	200.0	200.0	0.0	1200	59886
21.62383460998535	52	200.0	0.0	200.0	200.0	200.0	0.0	1200	61086
22.03740119934082	53	200.0	0.0	200.0	200.0	200.0	0.0	1200	62286
22.421433448791504	54	200.0	0.0	200.0	200.0	200.0	0.0	1200	63486
22.86583662033081	55	200.0	0.0	200.0	200.0	200.0	0.0	1200	64686
23.289258241653442	56	200.0	0.0	200.0	200.0	200.0	0.0	1200	65886
23.693197011947632	57	200.0	0.0	200.0	200.0	200.0	0.0	1200	67086
24.112356662750244	58	200.0	0.0	200.0	200.0	200.0	0.0	1200	68286
24.52103877067566	59	200.0	0.0	200.0	200.0	200.0	0.0	1200	69486
24.931123971939087	60	200.0	0.0	200.0	200.0	200.0	0.0	1200	70686
25.3460533618927	61	200.0	0.0	200.0	200.0	200.0	0.0	1200	71886
25.763879537582397	62	200.0	0.0	200.0	200.0	200.0	0.0	1200	73086
26.176197052001953	63	200.0	0.0	200.0	200.0	200.0	0.0	1200	74286
26.591864347457886	64	200.0	0.0	200.0	200.0	200.0	0.0	1200	75486
27.0119845867157	65	200.0	0.0	200.0	200.0	200.0	0.0	1200	76686
27.426772594451904	66	200.0	0.0	200.0	200.0	200.0	0.0	1200	77886
27.84145760536194	67	200.0	0.0	200.0	200.0	200.0	0.0	1200	79086
28.2488796710968	68	200.0	0.0	200.0	200.0	200.0	0.0	1200	80286
28.667654991149902	69	200.0	0.0	200.0	200.0	200.0	0.0	1200	81486
29.074368476867676	70	200.0	0.0	200.0	200.0	200.0	0.0	1200	82686
29.493932247161865	71	200.0	0.0	200.0	200.0	200.0	0.0	1200	83886
29.90700125694275	72	200.0	0.0	200.0	200.0	200.0	0.0	1200	85086
30.301398754119873	73	200.0	0.0	200.0	200.0	200.0	0.0	1200	86286
30.798391819000244	74	200.0	0.0	200.0	200.0	200.0	0.0	1200	87486
31.196571826934814	75	200.0	0.0	200.0	200.0	200.0	0.0	1200	88686
31.62296175956726	76	200.0	0.0	200.0	200.0	200.0	0.0	1200	89886
32.10671591758728	77	200.0	0.0	200.0	200.0	200.0	0.0	1200	91086
32.507367849349976	78	200.0	0.0	200.0	200.0	200.0	0.0	1200	92286
32.96384358406067	79	200.0	0.0	200.0	200.0	200.0	0.0	1200	93486
33.46127700805664	80	200.0	0.0	200.0	200.0	200.0	0.0	1200	94686
33.94571661949158	81	200.0	0.0	200.0	200.0	200.0	0.0	1200	95886
34.42348122596741	82	200.0	0.0	200.0	200.0	200.0	0.0	1200	97086
34.955241441726685	83	200.0	0.0	200.0	200.0	200.0	0.0	1200	98286
35.40153121948242	84	200.0	0.0	200.0	200.0	200.0	0.0	1200	99486
35.85685634613037	85	200.0	0.0	200.0	200.0	200.0	0.0	1200	100686
36.276052951812744	86	200.0	0.0	200.0	200.0	200.0	0.0	1200	101886
36.6856153011322	87	200.0	0.0	200.0	200.0	200.0	0.0	1200	103086
37.08888006210327	88	200.0	0.0	200.0	200.0	200.0	0.0	1200	104286
37.50092101097107	89	200.0	0.0	200.0	200.0	200.0	0.0	1200	105486
37.913623094558716	90	200.0	0.0	200.0	200.0	200.0	0.0	1200	106686
38.326696157455444	91	200.0	0.0	200.0	200.0	200.0	0.0	1200	107886
38.71217966079712	92	200.0	0.0	200.0	200.0	200.0	0.0	1200	109086
39.128764629364014	93	200.0	0.0	200.0	200.0	200.0	0.0	1200	110286
39.54510569572449	94	200.0	0.0	200.0	200.0	200.0	0.0	1200	111486
39.96403408050537	95	200.0	0.0	200.0	200.0	200.0	0.0	1200	112686
40.37958550453186	96	200.0	0.0	200.0	200.0	200.0	0.0	1200	113886
40.80203557014465	97	200.0	0.0	200.0	200.0	200.0	0.0	1200	115086
41.18873310089111	98	200.0	0.0	200.0	200.0	200.0	0.0	1200	116286
41.636645793914795	99	200.0	0.0	200.0	200.0	200.0	0.0	1200	117486
