Time	Iteration	AverageReturn	StdReturn	MaxReturn	MinReturn	EpLenMean	EpLenStd	TimestepsThisBatch	TimestepsSoFar
197.83099389076233	0	-287.20795	350.81915	-29.181332	-2115.7808	44.7262969588551	53.56005980340551	50004	50004
397.19397616386414	1	-955.50934	917.306	-241.3544	-13572.483	21.191949152542374	20.573350038193215	50013	100017
591.6932437419891	2	-1634.9369	1752.3716	-312.40704	-18932.537	27.10449377368706	28.780866838829088	50062	150079
782.2646253108978	3	-1273.508	1773.6932	-183.37859	-10538.275	38.1763358778626	53.69792713821103	50011	200090
975.7384550571442	4	-503.25208	584.9283	-104.671196	-5221.802	29.538961038961038	35.10543176177015	50039	250129
1172.0028810501099	5	-406.5906	469.61407	-105.01175	-6430.701	19.395438732122148	22.939126062553854	50176	300305
1369.9785327911377	6	-393.18292	522.8336	-54.74658	-3601.5713	33.81068289384719	45.394841971604684	50006	350311
1568.673491716385	7	-653.97064	751.9892	-80.26876	-3320.5034	62.5653798256538	72.01631990875016	50240	400551
1739.8048167228699	8	-290.9422	374.75916	-49.059914	-3245.3594	29.538688718251624	36.73950634635026	50009	450560
1927.693862438202	9	-264.0659	392.244	-36.790894	-2460.3882	36.278985507246375	52.3834772502349	50065	500625
2078.622414112091	10	-211.40833	281.06534	-36.460186	-2288.2686	28.87593768032314	38.1137054754204	50042	550667
2213.3012771606445	11	-179.20514	232.73509	-33.009937	-2239.7024	25.45689655172414	32.794053845942194	50201	600868
5213.336211681366	12	-239.87125	278.57367	-25.214035	-1786.3921	44.25486725663717	50.23080004111013	50008	650876
5431.218836307526	13	-171.89804	201.07387	-27.677681	-1546.6617	36.61493411420205	40.962339016162325	50016	700892
5653.6631009578705	14	-366.41647	515.5537	-35.398632	-1875.9299	64.21566110397946	89.05194405856143	50024	750916
5875.692724466324	15	-188.11394	241.11044	-22.061745	-1222.1543	51.508230452674894	66.2230839348327	50066	800982
6105.245642185211	16	-134.71468	202.44696	-19.870344	-1634.4683	26.995143011332974	39.40497088340804	50022	851004
6347.411064624786	17	-140.87242	196.60751	-15.423139	-1417.6694	34.92108938547486	47.68517333883918	50007	901011
6588.860118865967	18	-294.78568	288.03198	-16.296972	-1144.8622	87.06260869565217	83.55005525028182	50061	951072
6827.53195142746	19	-141.24939	220.81662	-0.7460171	-997.9795	48.49370764762827	71.26307701939842	50094	1001166
7069.301583766937	20	-233.65337	273.50845	2.1776545	-1014.49426	82.25	91.75697306070617	50008	1051174
7306.311755657196	21	-161.4528	153.76534	-3.8072348	-985.1015	54.54089422028353	51.28705237159765	50014	1101188
7537.646137714386	22	-111.267075	150.41278	-9.455213	-787.63293	52.554039874081845	69.06638279867006	50084	1151272
7775.305776834488	23	-63.662926	98.85904	15.024419	-697.3883	33.02708058124174	45.63739030070081	50003	1201275
8010.932653665543	24	-144.55821	147.4323	10.64828	-603.1128	92.87407407407407	87.27232216880249	50152	1251427
8178.784813642502	25	-84.45999	121.06808	-6.9192386	-1040.9574	29.512684365781713	38.07267911710525	50024	1301451
8332.403910398483	26	-77.647415	119.857506	-4.4072795	-935.5359	30.600979192166463	43.43624485912929	50002	1351453
8438.964254140854	27	-158.26472	140.29553	4.4777684	-584.9419	97.47859922178988	91.57064701172953	50104	1401557
8532.6833319664	28	-220.62776	202.76784	-4.558611	-747.1779	104.20208333333333	90.7476285034108	50017	1451574
8626.173390865326	29	-238.23688	204.13728	-7.187903	-737.7329	113.94305239179954	102.70329665698982	50021	1501595
8865.130062103271	30	-145.0539	196.6748	-33.276714	-2343.4995	21.319693094629155	26.348816200463848	50016	1551611
9104.002372026443	31	-133.77873	185.23404	-30.997185	-1911.3192	22.959136822773186	29.66571765573771	50005	1601616
9340.530711889267	32	-179.43942	203.27666	-11.721379	-996.4656	63.554002541296065	69.90173221256863	50017	1651633
9577.654982089996	33	-635.9305	440.9843	-31.337841	-1410.2832	162.67532467532467	107.88704910764001	50104	1701737
9766.421640872955	34	-159.71294	185.62102	-50.01334	-2720.9282	19.239322816467872	21.39752857257811	50003	1751740
9995.71676492691	35	-276.75168	343.11124	-70.29628	-4883.39	19.594043887147336	21.783357563035985	50004	1801744
10212.70967721939	36	-209.00224	222.00874	-80.87288	-4225.2275	13.774229074889869	16.036275540668637	50028	1851772
