{"animate"	:	false,
"env_name"	:	"Ant-v2",
"exp_name"	:	"ant_10000_0.01",
"gamma"	:	0.9,
"learning_rate"	:	0.007,
"logdir"	:	"data/ant_10000_0.01_Ant-v2_23-10-2018_21-08-35/11",
"max_path_length"	:	300.0,
"min_timesteps_per_batch"	:	20000,
"n_iter"	:	300,
"n_layers"	:	2,
"nn_baseline"	:	false,
"normalize_advantages"	:	true,
"reward_to_go"	:	true,
"seed"	:	11,
"size"	:	100}