Time	Iteration	AverageReturn	StdReturn	MaxReturn	MinReturn	EpLenMean	EpLenStd	TimestepsThisBatch	TimestepsSoFar
9.224031925201416	0	-155.05505	0.0	-155.05505	-155.05505	151.0	0.0	151	151
9.583522081375122	1	-130.1003	0.0	-130.1003	-130.1003	151.0	0.0	151	302
9.75541877746582	2	-159.85037	0.0	-159.85037	-159.85037	151.0	0.0	151	453
9.920344114303589	3	-200.09619	0.0	-200.09619	-200.09619	151.0	0.0	151	604
10.098158597946167	4	-181.78612	0.0	-181.78612	-181.78612	151.0	0.0	151	755
10.267952919006348	5	-184.24644	0.0	-184.24644	-184.24644	151.0	0.0	151	906
10.435004234313965	6	-205.66841	0.0	-205.66841	-205.66841	151.0	0.0	151	1057
10.617187738418579	7	-128.7143	0.0	-128.7143	-128.7143	151.0	0.0	151	1208
10.802181720733643	8	-167.07968	0.0	-167.07968	-167.07968	151.0	0.0	151	1359
10.988940000534058	9	-155.1248	0.0	-155.1248	-155.1248	151.0	0.0	151	1510
