{"animate"	:	false,
"env_name"	:	"CartPole-v0",
"exp_name"	:	"sb_rtg_dna",
"gamma"	:	1.0,
"learning_rate"	:	0.005,
"logdir"	:	"data/sb_rtg_dna_CartPole-v0_01-10-2018_01-09-46/11",
"max_path_length"	:	null,
"min_timesteps_per_batch"	:	1000,
"n_iter"	:	100,
"n_layers"	:	2,
"nn_baseline"	:	false,
"normalize_advantages"	:	false,
"reward_to_go"	:	true,
"seed"	:	11,
"size"	:	64}