Time	Iteration	AverageReturn	StdReturn	MaxReturn	MinReturn	EpLenMean	EpLenStd	TimestepsThisBatch	TimestepsSoFar
3.615994691848755	0	19.056604	9.692274	52.0	9.0	19.056603773584907	9.692274874312584	1010	1010
4.453763961791992	1	25.525	11.412684	61.0	12.0	25.525	11.412684828733335	1021	2031
5.2043845653533936	2	46.041668	23.979988	132.0	15.0	46.041666666666664	23.979990211748536	1105	3136
5.953240394592285	3	47.772728	28.089033	162.0	18.0	47.77272727272727	28.0890334766594	1051	4187
6.649353504180908	4	45.652172	15.196134	79.0	22.0	45.65217391304348	15.1961342213769	1050	5237
7.317833662033081	5	55.666668	26.023495	130.0	25.0	55.666666666666664	26.023493659042444	1002	6239
8.016395807266235	6	50.2	15.857491	79.0	24.0	50.2	15.857490343683013	1004	7243
8.713447570800781	7	69.26667	24.381596	122.0	39.0	69.26666666666667	24.381595973648285	1039	8282
9.249810934066772	8	63.8125	16.156342	99.0	37.0	63.8125	16.156340667057005	1021	9303
9.799551486968994	9	59.705883	15.829105	83.0	32.0	59.705882352941174	15.829104637761986	1015	10318
19.020849227905273	10	64.5625	28.624659	153.0	27.0	64.5625	28.624658840761754	1033	11351
19.552547454833984	11	93.0	30.021204	137.0	29.0	93.0	30.021204627275157	1023	12374
20.06090521812439	12	87.583336	24.921404	164.0	65.0	87.58333333333333	24.92140423188246	1051	13425
20.565362453460693	13	86.666664	33.74249	186.0	51.0	86.66666666666667	33.74248887612702	1040	14465
21.056519031524658	14	91.90909	18.292843	122.0	58.0	91.9090909090909	18.292842840126127	1011	15476
21.57200860977173	15	93.0	36.354317	190.0	62.0	93.0	36.3543169876201	1023	16499
22.193459272384644	16	112.3	31.074266	159.0	70.0	112.3	31.07426588030681	1123	17622
22.814987659454346	17	122.77778	41.054916	199.0	59.0	122.77777777777777	41.05491654892878	1105	18727
23.37270951271057	18	132.625	41.61111	200.0	87.0	132.625	41.611108793205695	1061	19788
23.92492413520813	19	191.33333	13.26231	200.0	163.0	191.33333333333334	13.262310842718508	1148	20936
39.28360199928284	20	168.5	20.172174	200.0	145.0	168.5	20.17217555611359	1011	21947
39.89341640472412	21	192.16667	11.378586	200.0	172.0	192.16666666666666	11.378586125798854	1153	23100
40.45527100563049	22	181.66667	28.622059	200.0	124.0	181.66666666666666	28.622058315610744	1090	24190
41.06148076057434	23	182.5	25.623882	200.0	136.0	182.5	25.62388208943628	1095	25285
41.61429762840271	24	178.33333	25.104227	200.0	143.0	178.33333333333334	25.104227178350307	1070	26355
42.262983322143555	25	200.0	0.0	200.0	200.0	200.0	0.0	1200	27555
42.87066149711609	26	200.0	0.0	200.0	200.0	200.0	0.0	1200	28755
43.50112700462341	27	200.0	0.0	200.0	200.0	200.0	0.0	1200	29955
44.1439208984375	28	200.0	0.0	200.0	200.0	200.0	0.0	1200	31155
44.681596994400024	29	200.0	0.0	200.0	200.0	200.0	0.0	1200	32355
65.74799394607544	30	200.0	0.0	200.0	200.0	200.0	0.0	1200	33555
66.37634253501892	31	200.0	0.0	200.0	200.0	200.0	0.0	1200	34755
66.98980975151062	32	200.0	0.0	200.0	200.0	200.0	0.0	1200	35955
67.60318732261658	33	200.0	0.0	200.0	200.0	200.0	0.0	1200	37155
68.17419600486755	34	200.0	0.0	200.0	200.0	200.0	0.0	1200	38355
68.74462389945984	35	196.83333	7.0808816	200.0	181.0	196.83333333333334	7.080881928749334	1181	39536
69.31047010421753	36	199.66667	0.745356	200.0	198.0	199.66666666666666	0.7453559924999298	1198	40734
69.87678933143616	37	200.0	0.0	200.0	200.0	200.0	0.0	1200	41934
70.46949744224548	38	193.83333	13.789086	200.0	163.0	193.83333333333334	13.789085861248703	1163	43097
70.96821188926697	39	200.0	0.0	200.0	200.0	200.0	0.0	1200	44297
91.98143243789673	40	200.0	0.0	200.0	200.0	200.0	0.0	1200	45497
92.60745620727539	41	200.0	0.0	200.0	200.0	200.0	0.0	1200	46697
93.23346328735352	42	195.16667	10.807662	200.0	171.0	195.16666666666666	10.807661891248983	1171	47868
93.93670582771301	43	200.0	0.0	200.0	200.0	200.0	0.0	1200	49068
94.65453886985779	44	200.0	0.0	200.0	200.0	200.0	0.0	1200	50268
95.32120084762573	45	191.5	16.46967	200.0	155.0	191.5	16.469669092000604	1149	51417
96.00792717933655	46	200.0	0.0	200.0	200.0	200.0	0.0	1200	52617
96.64767384529114	47	195.33333	6.992059	200.0	182.0	195.33333333333334	6.992058987801011	1172	53789
97.3744056224823	48	198.5	3.354102	200.0	191.0	198.5	3.3541019662496847	1191	54980
97.94353032112122	49	190.5	13.288466	200.0	163.0	190.5	13.288466176851765	1143	56123
119.08045983314514	50	198.33333	3.72678	200.0	190.0	198.33333333333334	3.7267799624996494	1190	57313
119.67884802818298	51	196.83333	7.0808816	200.0	181.0	196.83333333333334	7.080881928749334	1181	58494
120.3091173171997	52	200.0	0.0	200.0	200.0	200.0	0.0	1200	59694
120.91297388076782	53	188.83333	24.969425	200.0	133.0	188.83333333333334	24.969425748747653	1133	60827
121.5184338092804	54	200.0	0.0	200.0	200.0	200.0	0.0	1200	62027
122.10525178909302	55	182.83333	17.629679	200.0	154.0	182.83333333333334	17.629678260125893	1097	63124
122.84702348709106	56	200.0	0.0	200.0	200.0	200.0	0.0	1200	64324
123.57398748397827	57	200.0	0.0	200.0	200.0	200.0	0.0	1200	65524
124.21728372573853	58	200.0	0.0	200.0	200.0	200.0	0.0	1200	66724
124.79916167259216	59	200.0	0.0	200.0	200.0	200.0	0.0	1200	67924
146.02005624771118	60	200.0	0.0	200.0	200.0	200.0	0.0	1200	69124
146.81374621391296	61	200.0	0.0	200.0	200.0	200.0	0.0	1200	70324
147.4681510925293	62	200.0	0.0	200.0	200.0	200.0	0.0	1200	71524
148.1247410774231	63	200.0	0.0	200.0	200.0	200.0	0.0	1200	72724
148.94765281677246	64	200.0	0.0	200.0	200.0	200.0	0.0	1200	73924
149.79646825790405	65	200.0	0.0	200.0	200.0	200.0	0.0	1200	75124
150.65933871269226	66	200.0	0.0	200.0	200.0	200.0	0.0	1200	76324
151.4493465423584	67	200.0	0.0	200.0	200.0	200.0	0.0	1200	77524
152.09789204597473	68	200.0	0.0	200.0	200.0	200.0	0.0	1200	78724
152.75370478630066	69	200.0	0.0	200.0	200.0	200.0	0.0	1200	79924
173.92353343963623	70	200.0	0.0	200.0	200.0	200.0	0.0	1200	81124
174.5305004119873	71	200.0	0.0	200.0	200.0	200.0	0.0	1200	82324
175.30445384979248	72	200.0	0.0	200.0	200.0	200.0	0.0	1200	83524
176.15427923202515	73	200.0	0.0	200.0	200.0	200.0	0.0	1200	84724
177.09226298332214	74	200.0	0.0	200.0	200.0	200.0	0.0	1200	85924
178.0156216621399	75	199.33333	1.4907119	200.0	196.0	199.33333333333334	1.4907119849998598	1196	87120
178.99146151542664	76	200.0	0.0	200.0	200.0	200.0	0.0	1200	88320
179.76393914222717	77	200.0	0.0	200.0	200.0	200.0	0.0	1200	89520
180.55167388916016	78	200.0	0.0	200.0	200.0	200.0	0.0	1200	90720
181.26662492752075	79	196.83333	7.0808816	200.0	181.0	196.83333333333334	7.080881928749334	1181	91901
202.4353928565979	80	200.0	0.0	200.0	200.0	200.0	0.0	1200	93101
203.06777000427246	81	200.0	0.0	200.0	200.0	200.0	0.0	1200	94301
203.9083616733551	82	200.0	0.0	200.0	200.0	200.0	0.0	1200	95501
204.70758748054504	83	189.0	15.937377	200.0	161.0	189.0	15.937377450509228	1134	96635
205.53540134429932	84	199.0	2.236068	200.0	194.0	199.0	2.23606797749979	1194	97829
206.1992449760437	85	200.0	0.0	200.0	200.0	200.0	0.0	1200	99029
206.7632668018341	86	193.66667	14.161763	200.0	162.0	193.66666666666666	14.161763857498668	1162	100191
207.33817267417908	87	200.0	0.0	200.0	200.0	200.0	0.0	1200	101391
207.94081926345825	88	200.0	0.0	200.0	200.0	200.0	0.0	1200	102591
208.51705288887024	89	200.0	0.0	200.0	200.0	200.0	0.0	1200	103791
229.63370943069458	90	200.0	0.0	200.0	200.0	200.0	0.0	1200	104991
230.30633807182312	91	200.0	0.0	200.0	200.0	200.0	0.0	1200	106191
231.07784056663513	92	200.0	0.0	200.0	200.0	200.0	0.0	1200	107391
231.80310988426208	93	200.0	0.0	200.0	200.0	200.0	0.0	1200	108591
232.40085291862488	94	200.0	0.0	200.0	200.0	200.0	0.0	1200	109791
233.00036072731018	95	200.0	0.0	200.0	200.0	200.0	0.0	1200	110991
233.62997961044312	96	200.0	0.0	200.0	200.0	200.0	0.0	1200	112191
234.22062420845032	97	200.0	0.0	200.0	200.0	200.0	0.0	1200	113391
234.82194304466248	98	200.0	0.0	200.0	200.0	200.0	0.0	1200	114591
235.4248170852661	99	200.0	0.0	200.0	200.0	200.0	0.0	1200	115791
