Time	Iteration	AverageReturn	StdReturn	MaxReturn	MinReturn	EpLenMean	EpLenStd	TimestepsThisBatch	TimestepsSoFar
2.7775449752807617	0	18.67907	9.333824	88.0	8.0	18.67906976744186	9.333823418073843	4016	4016
5.263351202011108	1	28.798561	16.447947	93.0	10.0	28.798561151079138	16.44794704388638	4003	8019
7.6011130809783936	2	36.09009	21.700481	120.0	9.0	36.090090090090094	21.700479319466343	4006	12025
9.868683099746704	3	45.044945	18.602228	93.0	16.0	45.04494382022472	18.60222900281706	4009	16034
12.17196273803711	4	51.564102	25.553661	195.0	22.0	51.56410256410256	25.553658849661144	4022	20056
14.518134832382202	5	53.386665	20.691957	121.0	20.0	53.38666666666666	20.69195871723012	4004	24060
16.910056829452515	6	55.98611	19.865866	115.0	20.0	55.986111111111114	19.86586481572205	4031	28091
19.30307173728943	7	66.14754	27.813688	181.0	23.0	66.14754098360656	27.813686963037256	4035	32126
21.700717210769653	8	65.354836	21.736765	130.0	30.0	65.35483870967742	21.736765921266233	4052	36178
24.08106780052185	9	70.70175	25.327305	147.0	28.0	70.70175438596492	25.32730647073393	4030	40208
26.48201823234558	10	76.92453	22.664783	133.0	33.0	76.9245283018868	22.66478363519782	4077	44285
28.88671064376831	11	88.28261	32.073734	197.0	32.0	88.28260869565217	32.0737350514596	4061	48346
31.341602325439453	12	104.82051	35.921474	195.0	49.0	104.82051282051282	35.921475467149385	4088	52434
33.70925545692444	13	109.92105	31.369932	183.0	56.0	109.92105263157895	31.369933290994425	4177	56611
36.19761395454407	14	142.13792	32.92596	200.0	73.0	142.13793103448276	32.9259609740431	4122	60733
38.49309420585632	15	169.29167	27.412708	200.0	82.0	169.29166666666666	27.412708680869574	4063	64796
40.884284019470215	16	181.86363	22.597858	200.0	123.0	181.86363636363637	22.597858817606944	4001	68797
43.341792345047	17	197.19048	12.564571	200.0	141.0	197.1904761904762	12.564572444998817	4141	72938
45.83246374130249	18	200.0	0.0	200.0	200.0	200.0	0.0	4200	77138
48.193748474121094	19	194.71428	22.976473	200.0	92.0	194.71428571428572	22.976474214877676	4089	81227
50.61169075965881	20	194.95238	21.6959	200.0	98.0	194.95238095238096	21.695898647914763	4094	85321
53.06999325752258	21	195.42857	11.286619	200.0	158.0	195.42857142857142	11.286618408630673	4104	89425
55.466917991638184	22	193.33333	22.412437	200.0	101.0	193.33333333333334	22.412439856415904	4060	93485
57.923415422439575	23	190.09091	32.53237	200.0	62.0	190.0909090909091	32.532374212479894	4182	97667
60.483699798583984	24	198.90475	3.6502414	200.0	184.0	198.9047619047619	3.6502415041403427	4177	101844
62.933998107910156	25	200.0	0.0	200.0	200.0	200.0	0.0	4200	106044
65.38044238090515	26	196.0	17.888544	200.0	116.0	196.0	17.88854381999832	4116	110160
67.86596727371216	27	200.0	0.0	200.0	200.0	200.0	0.0	4200	114360
70.36895275115967	28	199.95238	0.21295884	200.0	199.0	199.95238095238096	0.21295885499997994	4199	118559
72.88575601577759	29	197.7619	10.009066	200.0	153.0	197.76190476190476	10.009066184999059	4153	122712
75.34690403938293	30	200.0	0.0	200.0	200.0	200.0	0.0	4200	126912
78.40314841270447	31	200.0	0.0	200.0	200.0	200.0	0.0	4200	131112
81.1131546497345	32	200.0	0.0	200.0	200.0	200.0	0.0	4200	135312
83.68952775001526	33	200.0	0.0	200.0	200.0	200.0	0.0	4200	139512
86.4563159942627	34	200.0	0.0	200.0	200.0	200.0	0.0	4200	143712
88.96394491195679	35	200.0	0.0	200.0	200.0	200.0	0.0	4200	147912
91.49766492843628	36	200.0	0.0	200.0	200.0	200.0	0.0	4200	152112
93.97559809684753	37	200.0	0.0	200.0	200.0	200.0	0.0	4200	156312
96.48136973381042	38	200.0	0.0	200.0	200.0	200.0	0.0	4200	160512
98.9666395187378	39	200.0	0.0	200.0	200.0	200.0	0.0	4200	164712
101.4584538936615	40	200.0	0.0	200.0	200.0	200.0	0.0	4200	168912
103.91990041732788	41	200.0	0.0	200.0	200.0	200.0	0.0	4200	173112
106.3994472026825	42	200.0	0.0	200.0	200.0	200.0	0.0	4200	177312
108.84562659263611	43	200.0	0.0	200.0	200.0	200.0	0.0	4200	181512
111.3453061580658	44	200.0	0.0	200.0	200.0	200.0	0.0	4200	185712
113.78777146339417	45	200.0	0.0	200.0	200.0	200.0	0.0	4200	189912
116.57345485687256	46	200.0	0.0	200.0	200.0	200.0	0.0	4200	194112
119.60802364349365	47	200.0	0.0	200.0	200.0	200.0	0.0	4200	198312
122.19422459602356	48	200.0	0.0	200.0	200.0	200.0	0.0	4200	202512
124.68460154533386	49	200.0	0.0	200.0	200.0	200.0	0.0	4200	206712
127.18609762191772	50	200.0	0.0	200.0	200.0	200.0	0.0	4200	210912
129.65492296218872	51	200.0	0.0	200.0	200.0	200.0	0.0	4200	215112
132.11517715454102	52	200.0	0.0	200.0	200.0	200.0	0.0	4200	219312
134.66463232040405	53	200.0	0.0	200.0	200.0	200.0	0.0	4200	223512
137.1975474357605	54	200.0	0.0	200.0	200.0	200.0	0.0	4200	227712
139.68608951568604	55	200.0	0.0	200.0	200.0	200.0	0.0	4200	231912
142.03599739074707	56	200.0	0.0	200.0	200.0	200.0	0.0	4200	236112
144.4916217327118	57	200.0	0.0	200.0	200.0	200.0	0.0	4200	240312
146.91397523880005	58	200.0	0.0	200.0	200.0	200.0	0.0	4200	244512
149.21853303909302	59	200.0	0.0	200.0	200.0	200.0	0.0	4200	248712
151.58307671546936	60	200.0	0.0	200.0	200.0	200.0	0.0	4200	252912
153.96485686302185	61	200.0	0.0	200.0	200.0	200.0	0.0	4200	257112
156.36308479309082	62	200.0	0.0	200.0	200.0	200.0	0.0	4200	261312
158.8375267982483	63	200.0	0.0	200.0	200.0	200.0	0.0	4200	265512
161.34488916397095	64	200.0	0.0	200.0	200.0	200.0	0.0	4200	269712
163.80582284927368	65	200.0	0.0	200.0	200.0	200.0	0.0	4200	273912
166.31312441825867	66	200.0	0.0	200.0	200.0	200.0	0.0	4200	278112
168.76968955993652	67	200.0	0.0	200.0	200.0	200.0	0.0	4200	282312
171.24735832214355	68	200.0	0.0	200.0	200.0	200.0	0.0	4200	286512
173.6639688014984	69	200.0	0.0	200.0	200.0	200.0	0.0	4200	290712
176.03383255004883	70	200.0	0.0	200.0	200.0	200.0	0.0	4200	294912
178.36652636528015	71	194.71428	23.638432	200.0	89.0	194.71428571428572	23.638432904997774	4089	299001
180.80797934532166	72	195.85715	18.52742	200.0	113.0	195.85714285714286	18.52742038499826	4113	303114
183.23683738708496	73	200.0	0.0	200.0	200.0	200.0	0.0	4200	307314
185.66900873184204	74	200.0	0.0	200.0	200.0	200.0	0.0	4200	311514
188.0929093360901	75	198.85715	5.1110125	200.0	176.0	198.85714285714286	5.11101251999952	4176	315690
190.56678652763367	76	200.0	0.0	200.0	200.0	200.0	0.0	4200	319890
192.9249529838562	77	200.0	0.0	200.0	200.0	200.0	0.0	4200	324090
195.32825350761414	78	200.0	0.0	200.0	200.0	200.0	0.0	4200	328290
197.77663922309875	79	200.0	0.0	200.0	200.0	200.0	0.0	4200	332490
200.19532895088196	80	200.0	0.0	200.0	200.0	200.0	0.0	4200	336690
202.62526679039001	81	200.0	0.0	200.0	200.0	200.0	0.0	4200	340890
205.06198406219482	82	200.0	0.0	200.0	200.0	200.0	0.0	4200	345090
207.54377961158752	83	200.0	0.0	200.0	200.0	200.0	0.0	4200	349290
209.9699742794037	84	196.57143	15.333035	200.0	128.0	196.57142857142858	15.333037559998559	4128	353418
212.37975192070007	85	194.80952	16.98632	200.0	127.0	194.8095238095238	16.9863223621916	4091	357509
214.78469705581665	86	195.28572	15.973619	200.0	129.0	195.28571428571428	15.97361770498574	4101	361610
217.3632733821869	87	198.4762	6.814683	200.0	168.0	198.47619047619048	6.814683359999358	4168	365778
220.03116035461426	88	200.0	0.0	200.0	200.0	200.0	0.0	4200	369978
222.57687759399414	89	200.0	0.0	200.0	200.0	200.0	0.0	4200	374178
225.05598211288452	90	200.0	0.0	200.0	200.0	200.0	0.0	4200	378378
227.50908207893372	91	198.04762	8.731313	200.0	159.0	198.04761904761904	8.731313054999179	4159	382537
229.9865918159485	92	198.90475	3.4627924	200.0	186.0	198.9047619047619	3.4627921833710174	4177	386714
232.44747924804688	93	200.0	0.0	200.0	200.0	200.0	0.0	4200	390914
234.87211847305298	94	200.0	0.0	200.0	200.0	200.0	0.0	4200	395114
237.3992977142334	95	200.0	0.0	200.0	200.0	200.0	0.0	4200	399314
239.9297423362732	96	200.0	0.0	200.0	200.0	200.0	0.0	4200	403514
242.38291549682617	97	200.0	0.0	200.0	200.0	200.0	0.0	4200	407714
244.87688541412354	98	200.0	0.0	200.0	200.0	200.0	0.0	4200	411914
247.1714973449707	99	200.0	0.0	200.0	200.0	200.0	0.0	4200	416114
