Time	Iteration	AverageReturn	StdReturn	MaxReturn	MinReturn	EpLenMean	EpLenStd	TimestepsThisBatch	TimestepsSoFar
14.458374500274658	0	13.207894	9.615035	74.0	2.0	13.207894736842105	9.615034323472342	5019	5019
23.447948217391968	1	24.57353	13.959658	77.0	6.0	24.573529411764707	13.959657746735687	5013	10032
32.03266263008118	2	35.857143	17.509415	87.0	7.0	35.857142857142854	17.509414377320983	5020	15052
37.26539206504822	3	46.757008	21.64274	130.0	10.0	46.757009345794394	21.642741167920363	5003	20055
42.29485893249512	4	50.41	27.990032	152.0	9.0	50.41	27.99003215432236	5041	25096
47.16403126716614	5	59.4	32.627018	209.0	12.0	59.4	32.62701875656396	5049	30145
52.00556516647339	6	58.882355	29.449623	146.0	7.0	58.88235294117647	29.44962269396009	5005	35150
58.61332654953003	7	58.313953	28.052385	138.0	12.0	58.31395348837209	28.05238522707239	5015	40165
63.511855125427246	8	58.569767	31.005455	151.0	13.0	58.56976744186046	31.00545364544551	5037	45202
68.31695890426636	9	67.86487	33.02019	172.0	18.0	67.86486486486487	33.02019215338704	5022	50224
73.2700445652008	10	69.04054	38.29242	188.0	13.0	69.04054054054055	38.292416576593645	5109	55333
79.24766445159912	11	72.50725	30.356157	157.0	17.0	72.5072463768116	30.356157930502626	5003	60336
86.76624703407288	12	84.77966	38.894497	231.0	12.0	84.77966101694915	38.894497801194504	5002	65338
94.81886863708496	13	83.409836	33.201015	194.0	12.0	83.40983606557377	33.201015710899874	5088	70426
107.2954638004303	14	89.89286	40.396553	217.0	10.0	89.89285714285714	40.39655155518873	5034	75460
114.12466645240784	15	108.14893	41.374767	241.0	50.0	108.14893617021276	41.374768096491835	5083	80543
129.1457221508026	16	91.41818	31.686356	178.0	25.0	91.41818181818182	31.686355485712493	5028	85571
142.12160778045654	17	98.92157	31.684626	186.0	19.0	98.92156862745098	31.68462430181635	5045	90616
149.92682194709778	18	101.34	40.501163	227.0	31.0	101.34	40.501165415330945	5067	95683
155.18784618377686	19	117.46512	49.54601	331.0	49.0	117.46511627906976	49.54600814052427	5051	100734
161.22476315498352	20	125.475	64.28763	391.0	23.0	125.475	64.28763003097873	5019	105753
170.54662823677063	21	115.75	54.221817	255.0	45.0	115.75	54.22181924113375	5093	110846
178.32434463500977	22	139.88889	67.14403	392.0	35.0	139.88888888888889	67.14403166070922	5036	115882
186.3438422679901	23	184.07143	79.48581	313.0	26.0	184.07142857142858	79.4858157029239	5154	121036
194.4228732585907	24	260.8	223.37941	1000.0	65.0	260.8	223.3794081825807	5216	126252
201.13043785095215	25	294.64706	132.44885	564.0	108.0	294.6470588235294	132.44885413599363	5009	131261
213.65958285331726	26	500.27274	244.64857	1000.0	212.0	500.27272727272725	244.64857575680813	5503	136764
228.78471899032593	27	299.73685	242.90692	882.0	35.0	299.7368421052632	242.90692220104722	5695	142459
244.36502933502197	28	394.42856	269.50662	1000.0	69.0	394.42857142857144	269.50661648006087	5522	147981
250.18178939819336	29	456.9091	307.84546	1000.0	85.0	456.90909090909093	307.84543186046363	5026	153007
256.3603398799896	30	563.9	324.6991	1000.0	146.0	563.9	324.69907606890416	5639	158646
261.9786591529846	31	517.5	296.08353	1000.0	72.0	517.5	296.0835186227021	5175	163821
267.8177258968353	32	477.81818	261.63013	1000.0	104.0	477.8181818181818	261.63014080665937	5256	169077
273.58450269699097	33	479.81818	223.93822	1000.0	126.0	479.8181818181818	223.9382293814801	5278	174355
279.23586535453796	34	359.92856	166.72025	687.0	69.0	359.92857142857144	166.72023798897973	5039	179394
285.94858384132385	35	211.125	120.98978	446.0	57.0	211.125	120.98977659978824	5067	184461
296.0427932739258	36	203.07692	130.36337	691.0	48.0	203.07692307692307	130.36337471642724	5280	189741
304.31579542160034	37	225.69565	173.40189	705.0	59.0	225.69565217391303	173.40187922922533	5191	194932
310.67791414260864	38	240.81818	194.33655	813.0	68.0	240.8181818181818	194.33654883957377	5298	200230
317.7115828990936	39	330.64706	224.84975	907.0	80.0	330.6470588235294	224.84973836829485	5621	205851
325.18436789512634	40	429.0	302.32663	909.0	112.0	429.0	302.3266190982604	5577	211428
343.2011671066284	41	431.91666	329.4828	1000.0	70.0	431.9166666666667	329.48279123836227	5183	216611
359.900661945343	42	401.53845	262.6714	1000.0	62.0	401.53846153846155	262.67136981542177	5220	221831
371.35813069343567	43	836.4286	190.467	1000.0	552.0	836.4285714285714	190.46698787293235	5855	227686
379.40407967567444	44	656.75	288.17474	1000.0	269.0	656.75	288.1747516698852	5254	232940
387.9514317512512	45	561.44446	305.77338	1000.0	170.0	561.4444444444445	305.77337690631504	5053	237993
395.83859753608704	46	635.375	353.38467	1000.0	174.0	635.375	353.38468327730334	5083	243076
404.7941851615906	47	663.44446	325.19913	1000.0	122.0	663.4444444444445	325.1991222863347	5971	249047
415.03037762641907	48	635.1111	369.84213	1000.0	54.0	635.1111111111111	369.84214183424695	5716	254763
423.5769999027252	49	554.7	256.91248	1000.0	65.0	554.7	256.91245590667654	5547	260310
435.26499819755554	50	508.18182	291.03168	1000.0	101.0	508.1818181818182	291.03165031934805	5590	265900
447.49765968322754	51	369.92856	280.31448	1000.0	74.0	369.92857142857144	280.31448265059987	5179	271079
458.77542638778687	52	421.5	325.84338	939.0	91.0	421.5	325.8433928540928	5058	276137
471.5238652229309	53	781.7143	328.96796	1000.0	81.0	781.7142857142857	328.967959484426	5472	281609
481.9759922027588	54	661.5	305.6342	1000.0	205.0	661.5	305.6341767538441	5292	286901
491.3666412830353	55	1000.0	0.0	1000.0	1000.0	1000.0	0.0	6000	292901
506.119788646698	56	1000.0	0.0	1000.0	1000.0	1000.0	0.0	6000	298901
520.1707828044891	57	1000.0	0.0	1000.0	1000.0	1000.0	0.0	6000	304901
533.5037484169006	58	1000.0	0.0	1000.0	1000.0	1000.0	0.0	6000	310901
553.9991009235382	59	1000.0	0.0	1000.0	1000.0	1000.0	0.0	6000	316901
567.7473814487457	60	1000.0	0.0	1000.0	1000.0	1000.0	0.0	6000	322901
585.67870926857	61	1000.0	0.0	1000.0	1000.0	1000.0	0.0	6000	328901
606.6446347236633	62	1000.0	0.0	1000.0	1000.0	1000.0	0.0	6000	334901
625.6554007530212	63	1000.0	0.0	1000.0	1000.0	1000.0	0.0	6000	340901
640.7265026569366	64	1000.0	0.0	1000.0	1000.0	1000.0	0.0	6000	346901
655.1018033027649	65	1000.0	0.0	1000.0	1000.0	1000.0	0.0	6000	352901
665.1667819023132	66	1000.0	0.0	1000.0	1000.0	1000.0	0.0	6000	358901
684.7244143486023	67	1000.0	0.0	1000.0	1000.0	1000.0	0.0	6000	364901
697.2206363677979	68	1000.0	0.0	1000.0	1000.0	1000.0	0.0	6000	370901
710.175452709198	69	1000.0	0.0	1000.0	1000.0	1000.0	0.0	6000	376901
724.0889148712158	70	1000.0	0.0	1000.0	1000.0	1000.0	0.0	6000	382901
747.7629568576813	71	1000.0	0.0	1000.0	1000.0	1000.0	0.0	6000	388901
766.3411939144135	72	1000.0	0.0	1000.0	1000.0	1000.0	0.0	6000	394901
782.4828209877014	73	1000.0	0.0	1000.0	1000.0	1000.0	0.0	6000	400901
791.8630466461182	74	1000.0	0.0	1000.0	1000.0	1000.0	0.0	6000	406901
800.633383512497	75	938.1667	138.26353	1000.0	629.0	938.1666666666666	138.26353660873698	5629	412530
808.7726476192474	76	1000.0	0.0	1000.0	1000.0	1000.0	0.0	6000	418530
816.9942352771759	77	1000.0	0.0	1000.0	1000.0	1000.0	0.0	6000	424530
825.2108466625214	78	1000.0	0.0	1000.0	1000.0	1000.0	0.0	6000	430530
833.7848556041718	79	1000.0	0.0	1000.0	1000.0	1000.0	0.0	6000	436530
841.5068411827087	80	1000.0	0.0	1000.0	1000.0	1000.0	0.0	6000	442530
849.5036752223969	81	1000.0	0.0	1000.0	1000.0	1000.0	0.0	6000	448530
856.4767990112305	82	799.8571	327.46054	1000.0	66.0	799.8571428571429	327.46054443744106	5599	454129
864.062252998352	83	861.0	310.81345	1000.0	166.0	861.0	310.81344887247076	5166	459295
870.7906484603882	84	846.6667	222.85097	1000.0	451.0	846.6666666666666	222.8509716280267	5080	464375
878.6383595466614	85	704.875	336.18427	1000.0	170.0	704.875	336.1842640204922	5639	470014
886.2508385181427	86	471.16666	268.95535	1000.0	18.0	471.1666666666667	268.9553349949062	5654	475668
892.6412875652313	87	633.5	365.139	1000.0	79.0	633.5	365.139014623198	5068	480736
899.3702580928802	88	385.35715	225.10938	772.0	83.0	385.35714285714283	225.10937250997955	5395	486131
907.8326971530914	89	713.75	266.5937	1000.0	316.0	713.75	266.5936749062138	5710	491841
915.4395594596863	90	872.1667	285.84402	1000.0	233.0	872.1666666666666	285.8440231237231	5233	497074
923.6687035560608	91	831.7143	254.72096	1000.0	380.0	831.7142857142857	254.72097579548506	5822	502896
931.6386611461639	92	1000.0	0.0	1000.0	1000.0	1000.0	0.0	6000	508896
940.2424654960632	93	735.0	289.45337	1000.0	279.0	735.0	289.4533641193344	5880	514776
947.635870218277	94	721.1429	325.83362	1000.0	275.0	721.1428571428571	325.8336247541192	5048	519824
955.519012928009	95	481.36365	319.37787	1000.0	98.0	481.3636363636364	319.3778818342915	5295	525119
962.4453158378601	96	459.18182	270.82394	968.0	94.0	459.1818181818182	270.82393414501814	5051	530170
970.6465740203857	97	491.63635	288.58218	1000.0	101.0	491.6363636363636	288.5821996423432	5408	535578
977.4554238319397	98	400.76923	301.02444	1000.0	77.0	400.7692307692308	301.02444415085523	5210	540788
984.6629662513733	99	716.4286	335.30066	1000.0	128.0	716.4285714285714	335.30065704117686	5015	545803
