Time	Iteration	AverageReturn	StdReturn	MaxReturn	MinReturn	EpLenMean	EpLenStd	TimestepsThisBatch	TimestepsSoFar
2.740314245223999	0	16.442623	6.5412297	55.0	8.0	16.442622950819672	6.541230119846322	4012	4012
5.036694288253784	1	26.044872	13.952456	103.0	10.0	26.044871794871796	13.952457254731222	4063	8075
7.189659595489502	2	44.72222	25.2261	150.0	12.0	44.72222222222222	25.226101023335058	4025	12100
9.397041082382202	3	64.39683	33.43344	185.0	26.0	64.39682539682539	33.43344000483371	4057	16157
11.578378200531006	4	64.741936	29.583635	168.0	18.0	64.74193548387096	29.58363512521144	4014	20171
14.002441644668579	5	67.816666	36.14069	200.0	22.0	67.81666666666666	36.1406934385911	4069	24240
16.412128925323486	6	87.12766	39.386585	200.0	27.0	87.12765957446808	39.3865821310915	4095	28335
18.56166958808899	7	90.0	36.59265	200.0	33.0	90.0	36.592652571550786	4050	32385
20.802978038787842	8	121.333336	48.95308	200.0	21.0	121.33333333333333	48.95307998894493	4004	36389
23.273887634277344	9	173.375	36.82935	200.0	96.0	173.375	36.82935027483742	4161	40550
25.779877185821533	10	182.90909	45.732334	200.0	41.0	182.9090909090909	45.73233299309948	4024	44574
28.272398710250854	11	187.5	32.532154	200.0	61.0	187.5	32.53215192837555	4125	48699
30.65696382522583	12	173.0	44.058674	200.0	81.0	173.0	44.05867300165391	4152	52851
33.17279100418091	13	149.88889	49.045204	200.0	58.0	149.88888888888889	49.04520464597362	4047	56898
35.308871030807495	14	128.125	51.741997	200.0	28.0	128.125	51.74199817363068	4100	60998
37.43689441680908	15	111.888885	48.303886	200.0	17.0	111.88888888888889	48.30388630430025	4028	65026
39.601372718811035	16	78.26923	38.675232	200.0	29.0	78.26923076923077	38.67523327194102	4070	69096
41.88319635391235	17	75.92453	36.342632	200.0	31.0	75.9245283018868	36.3426300211332	4024	73120
44.015910625457764	18	77.01923	32.523064	180.0	30.0	77.01923076923077	32.52306305035728	4005	77125
46.324116230010986	19	101.1	46.352882	200.0	35.0	101.1	46.35288556282122	4044	81169
48.49524521827698	20	103.48718	41.41836	200.0	40.0	103.48717948717949	41.41836072160776	4036	85205
50.54930782318115	21	133.35484	48.129894	200.0	56.0	133.3548387096774	48.12989707776156	4134	89339
52.51725959777832	22	175.08696	42.437588	200.0	60.0	175.08695652173913	42.43758900199749	4027	93366
54.693647146224976	23	182.04546	38.167664	200.0	54.0	182.04545454545453	38.16766512582378	4005	97371
57.08183789253235	24	189.5	25.084856	200.0	115.0	189.5	25.084855989221865	4169	101540
59.19235682487488	25	199.95238	0.21295884	200.0	199.0	199.95238095238096	0.21295885499997996	4199	105739
61.45307230949402	26	189.09091	34.49889	200.0	79.0	189.0909090909091	34.49889206509403	4160	109899
63.60663652420044	27	200.0	0.0	200.0	200.0	200.0	0.0	4200	114099
66.29218673706055	28	200.0	0.0	200.0	200.0	200.0	0.0	4200	118299
68.87748074531555	29	200.0	0.0	200.0	200.0	200.0	0.0	4200	122499
71.08887887001038	30	200.0	0.0	200.0	200.0	200.0	0.0	4200	126699
73.25734734535217	31	200.0	0.0	200.0	200.0	200.0	0.0	4200	130899
75.43425035476685	32	200.0	0.0	200.0	200.0	200.0	0.0	4200	135099
77.62623834609985	33	200.0	0.0	200.0	200.0	200.0	0.0	4200	139299
79.78704619407654	34	196.95238	12.556449	200.0	141.0	196.95238095238096	12.556448506363989	4136	143435
81.91891646385193	35	200.0	0.0	200.0	200.0	200.0	0.0	4200	147635
84.1035509109497	36	200.0	0.0	200.0	200.0	200.0	0.0	4200	151835
86.28563332557678	37	200.0	0.0	200.0	200.0	200.0	0.0	4200	156035
88.40845584869385	38	198.19048	8.092437	200.0	162.0	198.1904761904762	8.092436489999239	4162	160197
91.1102340221405	39	200.0	0.0	200.0	200.0	200.0	0.0	4200	164397
93.35560297966003	40	195.04762	22.147722	200.0	96.0	195.04761904761904	22.147720919997916	4096	168493
95.48553395271301	41	197.2381	12.351614	200.0	142.0	197.23809523809524	12.35161358999884	4142	172635
97.68367457389832	42	191.71428	25.037388	200.0	91.0	191.71428571428572	25.03738701021574	4026	176661
99.95415949821472	43	200.0	0.0	200.0	200.0	200.0	0.0	4200	180861
102.35600304603577	44	195.33333	15.018507	200.0	137.0	195.33333333333334	15.018507101425078	4102	184963
104.58148169517517	45	197.7619	6.9823236	200.0	173.0	197.76190476190476	6.982322999340561	4153	189116
106.87926650047302	46	200.0	0.0	200.0	200.0	200.0	0.0	4200	193316
109.41892147064209	47	199.61905	1.7036707	200.0	192.0	199.61904761904762	1.7036708399998395	4192	197508
111.6087384223938	48	191.0	28.396849	200.0	79.0	191.0	28.396847578225167	4011	201519
113.970130443573	49	198.57143	6.388766	200.0	170.0	198.57142857142858	6.388765649999399	4170	205689
116.33193731307983	50	198.14285	8.305395	200.0	161.0	198.14285714285714	8.305395344999221	4161	209850
118.71017718315125	51	200.0	0.0	200.0	200.0	200.0	0.0	4200	214050
121.04678750038147	52	200.0	0.0	200.0	200.0	200.0	0.0	4200	218250
123.33829236030579	53	199.5238	2.1295884	200.0	190.0	199.52380952380952	2.1295885499997995	4190	222440
125.41498589515686	54	196.4762	11.316314	200.0	150.0	196.47619047619048	11.316313751222161	4126	226566
127.56423830986023	55	198.4762	6.8146834	200.0	168.0	198.47619047619048	6.814683359999359	4168	230734
129.74196076393127	56	195.33333	20.869965	200.0	102.0	195.33333333333334	20.869967789998036	4102	234836
131.89012479782104	57	200.0	0.0	200.0	200.0	200.0	0.0	4200	239036
133.9356529712677	58	196.57143	15.333036	200.0	128.0	196.57142857142858	15.333037559998557	4128	243164
136.37656140327454	59	200.0	0.0	200.0	200.0	200.0	0.0	4200	247364
138.57617664337158	60	199.57143	1.9166298	200.0	191.0	199.57142857142858	1.9166296949998196	4191	251555
140.86205077171326	61	200.0	0.0	200.0	200.0	200.0	0.0	4200	255755
142.97753262519836	62	200.0	0.0	200.0	200.0	200.0	0.0	4200	259955
145.03990411758423	63	194.61905	24.064352	200.0	87.0	194.61904761904762	24.064350614997732	4087	264042
147.537752866745	64	198.71428	4.0017	200.0	183.0	198.71428571428572	4.001700318886568	4173	268215
150.1147964000702	65	192.42857	23.275923	200.0	100.0	192.42857142857142	23.275925491438425	4041	272256
152.25971865653992	66	198.61905	4.292587	200.0	180.0	198.61904761904762	4.292587081804548	4171	276427
154.33563685417175	67	177.47826	33.79461	200.0	99.0	177.47826086956522	33.79460925009682	4082	280509
156.4014995098114	68	181.90909	26.70531	200.0	131.0	181.9090909090909	26.70530946682716	4002	284511
158.47432136535645	69	177.65218	27.657232	200.0	128.0	177.65217391304347	27.657232241750116	4086	288597
160.52889728546143	70	179.0	28.506292	200.0	102.0	179.0	28.506292211583286	4117	292714
162.59240674972534	71	156.8077	39.254612	200.0	86.0	156.80769230769232	39.254611910105766	4077	296791
164.74738001823425	72	172.0	39.23009	200.0	82.0	172.0	39.230090491866065	4128	300919
166.8838038444519	73	164.8	34.019993	200.0	87.0	164.8	34.01999412110472	4120	305039
168.99305367469788	74	167.12	43.12894	200.0	87.0	167.12	43.128941559004204	4178	309217
171.05339121818542	75	177.65218	37.58192	200.0	85.0	177.65217391304347	37.581920602114884	4086	313303
173.0784010887146	76	182.0	23.11434	200.0	132.0	182.0	23.114340294992786	4004	317307
175.1809663772583	77	182.04347	29.364988	200.0	92.0	182.04347826086956	29.364986931155244	4187	321494
177.2233555316925	78	192.28572	16.56486	200.0	125.0	192.28571428571428	16.564859124759536	4038	325532
179.41599702835083	79	196.2381	13.3591585	200.0	139.0	196.23809523809524	13.359158662932556	4121	329653
181.64960551261902	80	197.09525	12.990489	200.0	139.0	197.0952380952381	12.990490154998781	4139	333792
183.7749800682068	81	196.4762	15.758953	200.0	126.0	196.47619047619048	15.758955269998518	4126	337918
185.94541788101196	82	199.95238	0.21295884	200.0	199.0	199.95238095238096	0.21295885499997994	4199	342117
188.057475566864	83	200.0	0.0	200.0	200.0	200.0	0.0	4200	346317
190.3220329284668	84	200.0	0.0	200.0	200.0	200.0	0.0	4200	350517
192.47948908805847	85	200.0	0.0	200.0	200.0	200.0	0.0	4200	354717
194.62944412231445	86	200.0	0.0	200.0	200.0	200.0	0.0	4200	358917
196.83967232704163	87	200.0	0.0	200.0	200.0	200.0	0.0	4200	363117
198.94086503982544	88	200.0	0.0	200.0	200.0	200.0	0.0	4200	367317
201.09257340431213	89	200.0	0.0	200.0	200.0	200.0	0.0	4200	371517
203.24416542053223	90	200.0	0.0	200.0	200.0	200.0	0.0	4200	375717
205.5447654724121	91	200.0	0.0	200.0	200.0	200.0	0.0	4200	379917
207.96029233932495	92	200.0	0.0	200.0	200.0	200.0	0.0	4200	384117
210.11533617973328	93	200.0	0.0	200.0	200.0	200.0	0.0	4200	388317
212.58451962471008	94	200.0	0.0	200.0	200.0	200.0	0.0	4200	392517
214.68541836738586	95	200.0	0.0	200.0	200.0	200.0	0.0	4200	396717
216.8493275642395	96	200.0	0.0	200.0	200.0	200.0	0.0	4200	400917
218.9544129371643	97	200.0	0.0	200.0	200.0	200.0	0.0	4200	405117
221.0023534297943	98	200.0	0.0	200.0	200.0	200.0	0.0	4200	409317
222.33304691314697	99	200.0	0.0	200.0	200.0	200.0	0.0	4200	413517
