Time	Iteration	AverageReturn	StdReturn	MaxReturn	MinReturn	EpLenMean	EpLenStd	TimestepsThisBatch	TimestepsSoFar
50.1654908657074	0	-374.42862	449.7185	-57.19907	-2409.4075	48.834146341463416	58.915415224714614	10011	10011
74.55360627174377	1	-321.64014	430.4687	-47.292534	-2551.7544	42.21097046413502	56.183223898076605	10004	20015
97.79242849349976	2	-308.48874	408.57925	-52.16119	-2358.2485	41.31687242798354	54.255097836489995	10040	30055
123.54146075248718	3	-381.67383	544.69086	-50.801315	-2481.4365	49.90731707317073	70.11256590426535	10231	40286
155.19830417633057	4	-291.57535	375.20795	-42.147453	-2411.6084	38.08365019011407	47.95372292710596	10016	50302
191.50184273719788	5	-276.0218	349.503	-36.611244	-2628.9749	35.52264808362369	43.11558094026939	10195	60497
223.4096360206604	6	-308.4091	411.88965	-43.69552	-2398.889	39.741176470588236	53.11485585353129	10134	70631
259.0097465515137	7	-269.2013	336.78262	-43.472336	-2443.1826	34.6541095890411	42.89937513788361	10119	80750
294.07563304901123	8	-297.7807	382.49384	-33.23659	-2366.7783	39.54940711462451	50.27028261187454	10006	90756
330.80039143562317	9	-300.52155	421.0538	-57.91384	-2402.5007	39.87890625	54.9670798528875	10209	100965
365.2962508201599	10	-268.4546	350.59265	-43.6462	-2378.3892	36.410909090909094	45.40622973969049	10013	110978
405.7732002735138	11	-280.94507	361.4457	-49.84408	-2370.8738	37.82641509433962	47.93919163581736	10024	121002
445.818589925766	12	-282.656	360.38525	-34.966328	-2366.7383	38.91439688715953	48.23790414023479	10001	131003
479.32812762260437	13	-291.57993	399.77502	-46.997875	-2365.9294	40.064	54.08130826819929	10016	141019
515.2252984046936	14	-300.69595	374.67188	-43.999302	-2332.6956	41.369477911646584	50.157423184715505	10301	151320
546.7184336185455	15	-280.82977	312.08713	-36.982292	-2235.5537	38.98443579766537	43.670589420383365	10019	161339
571.6627650260925	16	-340.96408	434.14087	-47.280933	-2321.4448	47.492890995260666	58.730436465869474	10021	171360
593.9051833152771	17	-283.44547	361.91336	-47.176826	-2321.1216	39.22352941176471	49.494157263555124	10002	181362
617.1918051242828	18	-322.2873	435.27103	-51.538902	-2351.4312	44.68	59.16263685807116	10053	191415
639.6707091331482	19	-331.31625	430.5873	-55.38327	-2225.6824	47.52777777777778	61.34872366285813	10266	201681
661.4515335559845	20	-306.2948	374.86807	-57.101967	-2251.371	43.99561403508772	53.76235050330765	10031	211712
683.9433109760284	21	-320.3272	405.77533	-48.975662	-2232.7515	45.8018018018018	57.396568912084255	10168	221880
705.6417195796967	22	-358.6617	473.608	-49.889122	-2229.1472	52.197916666666664	68.81158147913564	10022	231902
729.9131691455841	23	-310.3161	378.8852	-51.768547	-2116.1118	45.234234234234236	54.85713713532518	10042	241944
763.3267555236816	24	-308.99402	407.91638	-39.15617	-2115.1587	45.27149321266968	60.86048545341649	10005	251949
798.40762591362	25	-264.47934	302.0475	-45.149216	-2147.0527	38.77906976744186	43.76011099007119	10005	261954
839.4276125431061	26	-306.9597	413.19293	-29.438072	-2140.688	44.85840707964602	60.00698591434627	10138	272092
879.0061790943146	27	-270.99353	312.19336	-42.290154	-2075.802	39.91235059760956	46.376171572196576	10018	282110
920.4696741104126	28	-269.89734	298.40756	-44.29906	-2099.4229	39.82539682539682	43.6538656927642	10036	292146
951.6627185344696	29	-255.56763	306.01938	-36.90061	-2127.5552	37.399253731343286	45.07035461492094	10023	302169
981.6718134880066	30	-249.05249	264.6374	-41.991325	-2023.43	37.50936329588015	39.750944048891824	10015	312184
1009.493638753891	31	-276.53198	360.1302	-33.66508	-2163.6914	40.37903225806452	51.72135216746772	10014	322198
1037.8829395771027	32	-251.7989	328.86682	-33.82163	-2201.9365	37.20817843866171	47.33163634699464	10009	332207
1072.1849710941315	33	-282.89877	398.53912	-31.38476	-2231.6528	41.8	57.62075725523456	10032	342239
1104.5885927677155	34	-256.2732	321.02078	-42.486736	-2102.4792	38.10227272727273	47.809606562731666	10059	352298
1136.1327724456787	35	-263.9279	324.81946	-40.556576	-2147.484	39.70634920634921	48.51616772907924	10006	362304
1165.0896050930023	36	-245.6461	297.23148	-34.46116	-2063.2446	37.47565543071161	44.70697738404601	10006	372310
1188.4225504398346	37	-267.98087	331.35565	-44.808132	-2069.5576	40.99183673469388	49.387347949072264	10043	382353
1210.324886083603	38	-261.0068	308.96808	-33.472218	-2090.08	40.048	46.81313593426529	10012	392365
1232.7315046787262	39	-274.01407	348.71094	-39.01048	-2082.3755	42.15966386554622	52.98199840048374	10034	402399
1255.369995355606	40	-275.03003	379.9155	-33.268307	-2152.2732	42.122950819672134	57.019636805723316	10278	412677
1277.0705471038818	41	-245.71027	324.70935	-28.477644	-2065.0005	37.62406015037594	50.22409952392241	10008	422685
1298.621839761734	42	-276.5646	352.66516	-51.31256	-2111.813	42.38135593220339	54.05574954783623	10002	432687
1320.3863463401794	43	-245.67438	325.23383	-38.399216	-2055.368	37.739622641509435	48.79557024289499	10001	442688
1342.1008038520813	44	-272.71198	354.9781	-37.967854	-2147.0051	42.04201680672269	54.284017326547975	10006	452694
1363.540286540985	45	-238.56766	270.2118	-37.551006	-2069.1348	36.91143911439114	42.048376397996	10003	462697
1387.5430178642273	46	-266.56967	330.75107	-40.308136	-2090.6685	41.045081967213115	50.3406634227812	10015	472712
1421.6684198379517	47	-213.20142	172.53656	-38.677876	-1824.7664	33.325581395348834	26.845199959668843	10031	482743
1449.452865600586	48	-243.54655	286.47018	-30.199709	-2029.1392	38.47709923664122	45.73619019852494	10081	492824
1479.4092185497284	49	-259.277	354.53268	-36.46311	-2027.0397	40.68292682926829	54.53652718992781	10008	502832
1515.111269235611	50	-244.81145	316.99985	-42.045296	-1977.9761	38.59230769230769	50.23432723881244	10034	512866
1545.6865301132202	51	-225.71895	220.24016	-33.532486	-1932.0198	35.12937062937063	35.434180748793366	10047	522913
1583.8205435276031	52	-238.76639	255.66754	-36.84382	-1958.6184	37.77067669172932	41.44545338525091	10047	532960
1607.8216733932495	53	-252.98749	314.3188	-42.302322	-2029.796	40.19277108433735	48.64562235441955	10008	542968
1631.374484539032	54	-275.54233	332.19205	-32.34043	-1982.482	43.698689956331876	51.68641631484581	10007	552975
1655.9898436069489	55	-263.24637	318.8795	-40.568542	-2011.5094	41.7875	49.39282009648095	10029	563004
1680.511994600296	56	-248.36765	320.68777	-43.09942	-2077.175	39.1640625	48.37439879208933	10026	573030
1703.1401245594025	57	-217.22055	265.18973	-29.812737	-2039.7236	34.60409556313993	40.88642702617798	10139	583169
1725.454353570938	58	-272.66666	336.74448	-46.89764	-2041.9487	43.743478260869566	52.89587249523479	10061	593230
1747.7275071144104	59	-227.19725	237.37059	-45.1103	-1881.6887	36.068345323741006	38.49337518630016	10027	603257
1770.022964000702	60	-241.18117	258.36774	-30.931664	-2048.586	37.93560606060606	39.48493696791174	10015	613272
1795.1795434951782	61	-283.87616	376.89804	-34.623653	-2032.25	44.96052631578947	59.403048120772226	10251	623523
1822.8673281669617	62	-273.14462	336.13815	-33.062904	-1991.6941	43.241379310344826	53.37152164062248	10032	633555
1845.0383512973785	63	-246.7616	286.38672	-37.65779	-1967.2384	39.70238095238095	45.863006782770604	10005	643560
1867.1179139614105	64	-269.16003	324.21332	-24.907757	-1970.1926	43.23706896551724	51.416401901654744	10031	653591
1891.195055961609	65	-262.67953	319.71008	-30.227262	-1946.3774	43.09361702127659	52.25868309915188	10127	663718
1915.111513376236	66	-243.68048	327.6629	-29.411976	-1910.5286	40.05179282868526	53.87229723277412	10053	673771
1940.3922460079193	67	-225.09412	276.10324	-42.117077	-1943.5095	37.11851851851852	44.90690813009968	10022	683793
1966.2491562366486	68	-201.99161	177.6961	-44.139214	-1818.9929	33.77852348993289	29.614264121038975	10066	693859
1991.3372910022736	69	-242.7018	292.33408	-38.861237	-1890.1987	39.785714285714285	47.454423772720155	10026	703885
2019.1948294639587	70	-234.3799	275.44366	-28.314701	-1905.2666	37.89811320754717	45.300183224945116	10043	713928
2044.2161192893982	71	-232.82655	258.3299	-42.700138	-1834.1877	38.053231939163496	42.768421186329746	10008	723936
2071.819317340851	72	-235.68524	300.31012	-34.77368	-1973.2747	37.81509433962264	47.79160499512407	10021	733957
2098.532909631729	73	-240.9693	333.28766	-28.047693	-1993.0032	39.58687258687259	53.39019313903931	10253	744210
2126.8637084960938	74	-240.169	305.38007	-33.99624	-1927.4167	39.31395348837209	49.035249533096405	10143	754353
2156.24884223938	75	-235.90334	283.52826	-36.20466	-1927.2075	39.42125984251968	46.79919935031068	10013	764366
2181.8174924850464	76	-260.57587	316.82758	-41.046204	-1879.6724	43.307359307359306	53.47391553655195	10004	774370
2207.0963349342346	77	-226.36797	259.26636	-23.5477	-1863.5754	38.270992366412216	43.43072748475328	10027	784397
2232.549590587616	78	-265.50687	322.84286	-46.848866	-1911.8337	44.660714285714285	53.921496106348336	10004	794401
2261.6483314037323	79	-260.80637	331.37708	-40.90885	-2030.791	44.06167400881057	55.308949517751344	10002	804403
2287.1427438259125	80	-268.4253	316.37436	-34.981144	-1845.4265	45.6	54.44266375154357	10032	814435
2313.626928806305	81	-268.2314	348.0501	-34.571995	-1885.6671	45.31531531531532	57.33911797478054	10060	824495
2341.2557656764984	82	-246.84645	286.06906	-38.043552	-1839.2712	42.45569620253165	48.43111532566948	10062	834557
2365.8252816200256	83	-271.92862	354.13092	-36.169006	-1823.3821	47.36448598130841	60.93782529626889	10136	844693
2392.070992231369	84	-256.79474	307.02292	-44.89963	-1876.7677	43.737991266375545	51.5505551444694	10016	854709
2419.135477542877	85	-266.8763	356.25876	-42.295284	-1862.0842	45.903669724770644	60.73090658022533	10007	864716
2441.6126475334167	86	-241.45984	289.37662	-35.33717	-1821.113	41.63070539419087	50.005897277950716	10033	874749
2464.980707168579	87	-268.26257	336.0931	-31.044043	-1814.0723	45.89908256880734	57.03474636339064	10006	884755
2489.920561313629	88	-256.18433	339.88705	-32.038406	-1962.9868	44.16740088105727	57.18443916549233	10026	894781
2514.146844148636	89	-238.27876	303.71735	-42.673073	-1872.1934	42.12133891213389	52.28580457973666	10067	904848
2537.737301826477	90	-228.81721	261.2096	-29.405304	-1856.876	39.801587301587304	45.65354692339712	10030	914878
2559.3024563789368	91	-191.35915	156.01094	-32.691025	-1658.3337	33.48494983277592	27.23333354120854	10012	924890
2585.1610627174377	92	-251.06271	348.55356	-37.479996	-1825.908	44.30530973451327	61.80514390012116	10013	934903
2608.676598072052	93	-222.6982	266.61597	-33.9684	-1832.875	38.69498069498069	45.53529343025638	10022	944925
2637.3162684440613	94	-199.42464	258.90555	-22.575985	-1961.4448	34.391752577319586	43.289298543706344	10008	954933
2677.628701686859	95	-251.66064	333.06537	-30.296854	-1815.4375	43.54347826086956	57.0174292657571	10015	964948
2712.003863811493	96	-199.42856	264.81766	-36.83232	-1914.8864	34.65051903114187	45.317705944243755	10014	974962
2739.318297147751	97	-215.97871	280.02643	-40.870026	-1816.5455	37.74339622641509	48.63023948367138	10002	984964
2766.8942070007324	98	-188.76736	238.61163	-31.172462	-1781.2964	32.91776315789474	41.77079312335872	10007	994971
2791.8681542873383	99	-196.00117	226.88058	-23.79402	-1826.0176	34.51034482758621	39.824116284132764	10008	1004979
2820.272830724716	100	-256.7697	358.2371	-41.592693	-1947.5264	43.94736842105263	59.569264137782476	10020	1014999
2849.0603976249695	101	-227.54713	278.22046	-43.042908	-1802.9736	39.76984126984127	47.214919403304286	10022	1025021
2875.1569871902466	102	-218.1467	285.07306	-24.601028	-1865.4497	38.09885931558935	48.322641476922634	10020	1035041
2899.622278213501	103	-198.12871	243.4876	-42.188347	-1774.817	34.65862068965517	41.556160730380604	10051	1045092
2927.304352760315	104	-216.38599	303.1579	-30.861477	-1788.6512	38.786821705426355	54.33727842220801	10007	1055099
2952.354981660843	105	-245.0518	330.27124	-28.96321	-1774.201	44.290748898678416	58.80404293139984	10054	1065153
2977.7526602745056	106	-238.39888	342.1344	-20.972364	-1760.5253	43.37931034482759	60.21536852350012	10064	1075217
3003.2984125614166	107	-221.36644	275.68948	-39.98802	-1847.9026	40.24497991967871	49.70685375418725	10021	1085238
3031.566907644272	108	-227.73216	295.27798	-26.262901	-1763.9878	41.8625	53.512166159513036	10047	1095285
3058.6874418258667	109	-196.82811	203.48152	-20.720936	-1686.8491	36.77205882352941	37.54349769654737	10002	1105287
3086.657473564148	110	-208.8754	237.5176	-36.146275	-1711.4978	38.95719844357976	43.880033181341595	10012	1115299
3111.7318103313446	111	-223.12773	242.29007	-31.683687	-1736.6276	40.93089430894309	43.97725877591864	10069	1125368
3137.512000322342	112	-223.26779	266.84018	-28.113401	-1707.1547	40.84897959183674	48.1781308777866	10008	1135376
3163.387282848358	113	-220.83183	268.36203	-27.52197	-1773.6443	40.54216867469879	48.84274443200611	10095	1145471
3190.0072858333588	114	-203.68993	293.42624	-37.84772	-1839.3275	37.47565543071161	52.75931469884496	10006	1155477
3218.324210166931	115	-243.19131	324.719	-32.481384	-1773.3337	44.22510822510822	58.829723263619066	10216	1165693
3243.967730283737	116	-209.38269	251.25545	-35.046223	-1681.0376	38.496153846153845	45.329944091747414	10009	1175702
3270.6096279621124	117	-207.75102	269.8366	-41.39155	-1807.8986	37.781132075471696	47.94121028928477	10012	1185714
3293.345860481262	118	-198.72011	251.50998	-33.90384	-1727.6064	36.633699633699635	46.29944619338921	10001	1195715
3317.9203679561615	119	-195.9898	199.38803	-29.986475	-1701.5769	35.50709219858156	36.36694810180978	10013	1205728
3339.750641822815	120	-194.2642	260.442	-21.468351	-1737.1154	35.15438596491228	45.977309698144595	10019	1215747
3364.060067653656	121	-212.65028	302.42737	-21.134134	-1739.6335	38.7992277992278	54.92471364775492	10049	1225796
3387.207733154297	122	-195.07658	284.80545	-40.67159	-1755.2247	35.38831615120275	50.02745364080816	10298	1236094
3409.5065767765045	123	-178.58926	192.59395	-26.631397	-1687.5897	32.79016393442623	34.82078569427416	10001	1246095
3431.836173057556	124	-181.52298	190.63718	-33.60441	-1720.7838	33.145695364238414	34.84086763599683	10010	1256105
3453.5977761745453	125	-180.5762	203.00172	-37.767487	-1760.5259	32.94407894736842	36.17601566892045	10015	1266120
3475.351032972336	126	-200.1673	241.54904	-27.371576	-1731.6078	37.103321033210335	44.177230573541614	10055	1276175
3497.034710407257	127	-191.42111	239.35318	-34.303696	-1663.4065	35.75	44.76336592093392	10010	1286185
3519.201005458832	128	-205.32187	248.46587	-25.84957	-1731.9401	38.347328244274806	44.933767761318805	10047	1296232
3555.3318185806274	129	-206.4946	239.09407	-31.790295	-1711.3599	38.23664122137404	43.83475773476079	10018	1306250
3577.312398672104	130	-193.0005	242.85393	-30.479197	-1685.6011	36.63503649635037	45.88113425443099	10038	1316288
3599.535454273224	131	-210.2855	234.68176	-31.897167	-1664.6145	39.25098039215686	43.74282853289713	10009	1326297
3629.390643596649	132	-221.6696	326.45856	-25.727547	-1655.1589	42.42372881355932	62.520695797832445	10012	1336309
3657.0531544685364	133	-216.1391	296.66946	-35.02372	-1752.0848	41.51452282157676	54.62297022521371	10005	1346314
3682.8760056495667	134	-209.42973	272.72485	-26.03993	-1645.57	39.63241106719368	51.184036474656125	10027	1356341
3708.715529203415	135	-163.3229	159.66513	-28.855366	-1651.3115	30.972136222910216	29.280153636627993	10004	1366345
3736.065500497818	136	-212.52444	304.34802	-25.510035	-1698.1837	40.18473895582329	56.44265320158031	10006	1376351
3760.9877405166626	137	-193.48206	252.03998	-29.48825	-1640.9872	36.242753623188406	47.54802055905405	10003	1386354
3785.852754354477	138	-190.04553	212.36401	-29.254353	-1656.5459	35.89964157706093	40.041519220932145	10016	1396370
3813.594230413437	139	-181.90865	217.95006	-31.90572	-1779.9347	34.38487972508591	40.483287182944224	10006	1406376
3840.407637834549	140	-186.52107	238.24222	-28.031588	-1715.439	35.459363957597176	43.96160719327655	10035	1416411
3869.008509874344	141	-200.9927	258.14157	-30.733423	-1719.9417	38.60769230769231	47.65662374720064	10038	1426449
3893.993996143341	142	-185.88173	214.27744	-40.279278	-1553.3826	36.43636363636364	41.93222394482169	10020	1436469
3920.7194027900696	143	-187.31055	213.48381	-28.741142	-1594.6716	36.996309963099634	42.62178108134371	10026	1446495
3947.187814474106	144	-190.55086	189.41425	-22.770569	-1666.1234	37.81132075471698	35.961854320656705	10020	1456515
3971.080148458481	145	-198.1452	230.1208	-31.784714	-1653.2249	40.01593625498008	45.35516926990696	10044	1466559
3995.3009555339813	146	-236.1598	285.5468	-33.434513	-1643.8923	47.65581395348837	57.501325777741386	10246	1476805
4019.3453934192657	147	-206.71004	276.10596	-23.892536	-1648.8525	41.551867219917014	54.4809381434903	10014	1486819
4043.28364610672	148	-188.61874	211.93236	-24.213696	-1537.0332	38.217557251908396	43.10127427831643	10013	1496832
4067.488054037094	149	-218.90976	266.45914	-20.742369	-1594.0981	43.633620689655174	51.470608358767635	10123	1506955
4091.661685705185	150	-202.50462	216.65485	-33.37124	-1620.888	40.2289156626506	42.21316872355889	10017	1516972
4114.295243024826	151	-196.60153	242.28484	-33.009266	-1673.346	38.46360153256705	45.087012691746885	10039	1527011
4139.250475406647	152	-190.1577	199.599	-33.531517	-1546.9344	38.7992277992278	39.706916616666845	10049	1537060
4164.365031003952	153	-189.15227	221.13507	-36.85026	-1537.9614	37.74716981132075	44.34598364649202	10003	1547063
4188.340590000153	154	-206.5921	241.676	-42.4336	-1572.7959	41.425619834710744	47.70853143540726	10025	1557088
4215.255602359772	155	-181.56462	187.56926	-37.945934	-1639.2555	36.974169741697416	37.686158802272224	10020	1567108
4241.1086456775665	156	-183.3353	207.54324	-31.141329	-1568.8645	37.196296296296296	41.34133418515306	10043	1577151
4266.667159795761	157	-205.75572	260.042	-35.520546	-1577.4963	41.16	50.90805830121593	10290	1587441
4291.627676725388	158	-193.06229	226.95973	-26.460196	-1605.8074	39.5	44.78256743931385	10033	1597474
4318.210571527481	159	-216.79546	306.93076	-34.38252	-1643.5188	43.644067796610166	60.77354819100344	10300	1607774
4342.758846282959	160	-173.13292	216.27267	-29.531195	-1566.2897	35.97849462365591	44.26702418270181	10038	1617812
4367.489174604416	161	-220.07066	302.9978	-39.681473	-1592.0234	44.93273542600897	59.942872318940466	10020	1627832
4397.14636015892	162	-187.25665	225.62927	-22.718746	-1561.46	38.92045454545455	45.72452633854502	10275	1638107
4425.630549669266	163	-209.87074	278.0257	-16.967337	-1561.6868	42.61276595744681	55.737521710173226	10014	1648121
4451.089109420776	164	-192.97598	252.20052	-35.77018	-1571.2286	40.56275303643725	49.889139339136115	10019	1658140
4476.299559354782	165	-201.8714	253.98059	-30.356382	-1579.2554	42.37759336099585	53.21570600078934	10213	1668353
4500.3725044727325	166	-182.00955	211.29303	-31.357702	-1540.3549	37.90909090909091	43.05536508740714	10008	1678361
4524.702870607376	167	-181.20186	197.65866	-27.32996	-1578.6642	37.609022556390975	40.35590435534604	10004	1688365
4550.963345527649	168	-197.37347	227.57408	-23.156166	-1567.7089	41.02459016393443	45.94605944942825	10010	1698375
4579.7673943042755	169	-166.84334	189.47575	-29.984	-1577.8734	35.02797202797203	37.445147585575235	10018	1708393
4607.170295476913	170	-175.57146	214.25916	-25.027714	-1555.3757	37.27007299270073	44.071607896948905	10212	1718605
4636.584285736084	171	-195.48099	249.14403	-24.379791	-1523.1307	41.67916666666667	52.40929846861358	10003	1728608
4665.374721050262	172	-202.2297	260.46213	-16.90342	-1547.6882	43.31623931623932	54.3476698991235	10136	1738744
4693.722892284393	173	-215.9376	262.95856	-41.03913	-1438.675	46.0045871559633	55.48406645456105	10029	1748773
4721.143270015717	174	-204.9764	228.53622	-36.30324	-1469.325	43.64935064935065	48.61388634398395	10083	1758856
4746.638576507568	175	-201.97844	212.46794	-30.438778	-1521.064	42.97424892703863	45.5600271628504	10013	1768869
4774.5094265937805	176	-179.45815	199.56622	-29.95589	-1462.0312	39.23529411764706	43.59438182695425	10005	1778874
4802.840795516968	177	-181.8921	239.78275	-31.856865	-1528.8835	39.35294117647059	51.13144289117797	10035	1788909
4828.300754785538	178	-162.65825	147.3783	-18.983036	-1430.3374	35.20701754385965	31.013114711157463	10034	1798943
4850.830060720444	179	-183.09175	218.45068	-24.262955	-1482.821	40.03187250996016	47.512202040200634	10048	1808991
4872.120961427689	180	-180.76442	206.98248	-28.817812	-1531.1885	39.573122529644266	43.970520902436746	10012	1819003
4895.1338810920715	181	-175.46687	200.06471	-34.636738	-1477.105	38.62595419847328	42.69326705196524	10120	1829123
4924.203483819962	182	-168.58818	201.72241	-33.262077	-1454.2736	37.185873605947954	43.660429555779416	10003	1839126
4952.29471373558	183	-204.65178	279.31027	-38.035397	-1513.1063	44.17180616740088	58.4919249503977	10027	1849153
4979.96342253685	184	-164.75188	180.6602	-28.149605	-1475.6387	36.014388489208635	37.872559039800535	10012	1859165
5009.1766748428345	185	-174.74393	225.47153	-22.359661	-1554.1455	37.278810408921935	46.959528933888166	10028	1869193
5032.220525503159	186	-162.23439	204.1397	-25.497007	-1440.6895	34.63321799307958	43.251062394986775	10009	1879202
5056.216930627823	187	-167.41997	224.04253	-32.24304	-1504.0939	36.6021897810219	48.961911260988856	10029	1889231
5080.336809635162	188	-158.85365	194.3653	-30.54533	-1475.855	34.86759581881533	41.299406844628784	10007	1899238
5109.116072893143	189	-155.03351	172.87756	-27.961811	-1428.1531	34.69550173010381	37.92522255329723	10027	1909265
5138.326903343201	190	-164.75252	189.68637	-29.60695	-1490.878	36.37090909090909	42.16660321209524	10002	1919267
5167.089661598206	191	-177.24197	218.29832	-28.560982	-1405.4124	38.67567567567568	47.80037142861284	10017	1929284
5196.384187698364	192	-156.15736	173.78362	-32.199284	-1474.1886	35.05594405594405	37.42073697266383	10026	1939310
5224.528990030289	193	-172.95222	225.45074	-26.070208	-1441.6141	38.496153846153845	48.61374434306881	10009	1949319
5252.884370088577	194	-162.89626	201.21718	-20.913485	-1453.4614	36.67399267399267	43.23299112276633	10012	1959331
5281.706136226654	195	-168.87123	207.42825	-28.724403	-1406.7084	37.87547169811321	44.91622770859051	10037	1969368
5309.61528468132	196	-177.00229	237.22562	-19.67581	-1398.7739	39.460629921259844	51.8622154837102	10023	1979391
5338.508955001831	197	-186.09766	258.4723	-26.817692	-1447.6691	41.614754098360656	56.7217752042069	10154	1989545
5367.171373844147	198	-190.99321	243.9811	-22.148705	-1500.5642	42.9059829059829	52.408729439567544	10040	1999585
5395.589903354645	199	-188.9438	223.01553	-22.571182	-1478.6722	42.60337552742616	48.956827502095656	10097	2009682
5424.945314645767	200	-191.63092	237.14139	-27.392647	-1440.8799	43.324675324675326	51.34530624486949	10008	2019690
5452.61084985733	201	-230.75955	294.6633	-28.483942	-1363.2458	52.753926701570684	67.35175439184601	10076	2029766
5480.49270772934	202	-161.04114	153.92305	-27.420013	-1290.1956	37.365671641791046	35.77396723892367	10014	2039780
5507.592359304428	203	-168.44708	205.47441	-16.667788	-1344.9441	39.1328125	46.50728623925335	10018	2049798
5535.577550649643	204	-174.45444	219.62279	-24.487038	-1400.7588	41.02459016393443	50.75664587265268	10010	2059808
5563.067962646484	205	-172.7721	212.79512	-15.666649	-1367.6123	40.22088353413655	49.32723497280931	10015	2069823
5590.7734162807465	206	-187.5275	232.30919	-21.56953	-1369.6665	43.82532751091703	53.7560807203463	10036	2079859
5620.8225264549255	207	-158.26694	184.98093	-26.698841	-1473.5227	36.11552346570397	41.37127411863101	10004	2089863
5647.359931230545	208	-163.80215	209.46161	-25.524576	-1389.2017	37.984962406015036	47.53502625684757	10104	2099967
5671.410348892212	209	-166.91675	212.74107	-19.816498	-1353.9678	39.1171875	48.676486413769055	10014	2109981
5696.839798688889	210	-161.52948	193.46129	-33.49739	-1456.1886	37.51310861423221	42.32930931890064	10016	2119997
