Time	Iteration	AverageReturn	StdReturn	MaxReturn	MinReturn	EpLenMean	EpLenStd	TimestepsThisBatch	TimestepsSoFar
8.663187265396118	0	7.933544	4.342025	34.0	3.0	7.9335443037974684	4.342024709412775	5014	5014
11.705133199691772	1	15.11747	9.941458	63.0	3.0	15.117469879518072	9.941457959956109	5019	10033
14.54654049873352	2	26.994623	16.492586	104.0	5.0	26.99462365591398	16.49258461973169	5021	15054
17.32274842262268	3	36.67153	19.494753	112.0	8.0	36.67153284671533	19.49475298639985	5024	20078
20.16823101043701	4	48.708736	25.291553	128.0	9.0	48.70873786407767	25.29155470080303	5017	25095
22.972508192062378	5	58.73256	30.372658	143.0	11.0	58.73255813953488	30.372656161309493	5051	30146
25.945536851882935	6	57.136364	26.299492	224.0	16.0	57.13636363636363	26.2994909293031	5028	35174
31.1348659992218	7	56.266666	26.516157	147.0	11.0	56.266666666666666	26.51615859559349	5064	40238
36.40264010429382	8	58.686047	27.063345	158.0	8.0	58.68604651162791	27.063345857840496	5047	45285
40.576943159103394	9	59.55294	31.41656	157.0	12.0	59.55294117647059	31.416558347602376	5062	50347
44.02405095100403	10	68.58108	36.1289	164.0	11.0	68.58108108108108	36.1289008954375	5075	55422
48.71774077415466	11	70.16438	29.847105	155.0	12.0	70.16438356164383	29.847105226025327	5122	60544
51.85719633102417	12	83.65	46.643623	203.0	7.0	83.65	46.64362228643912	5019	65563
54.76997089385986	13	83.88333	33.15775	158.0	17.0	83.88333333333334	33.157750057699765	5033	70596
58.26524019241333	14	94.703705	31.22121	200.0	48.0	94.70370370370371	31.221211705451996	5114	75710
62.52299165725708	15	104.65306	45.830902	280.0	42.0	104.65306122448979	45.830900822706305	5128	80838
66.93884253501892	16	98.4902	34.189995	214.0	9.0	98.49019607843137	34.18999541146596	5023	85861
71.83255577087402	17	111.22222	41.14035	238.0	54.0	111.22222222222223	41.140349962800855	5005	90866
77.07544040679932	18	108.297874	32.755	209.0	57.0	108.29787234042553	32.75499954927591	5090	95956
79.98796105384827	19	102.938774	28.868744	176.0	60.0	102.93877551020408	28.868744600816214	5044	101000
83.29374504089355	20	117.53488	45.34024	300.0	56.0	117.53488372093024	45.340237705806494	5054	106054
86.32792377471924	21	111.13333	36.70277	235.0	48.0	111.13333333333334	36.702770104357704	5001	111055
89.21345686912537	22	119.333336	48.242775	354.0	47.0	119.33333333333333	48.24277230181822	5012	116067
92.42824482917786	23	128.25641	43.57647	240.0	37.0	128.25641025641025	43.576468566816736	5002	121069
95.4026792049408	24	135.91891	51.95652	246.0	20.0	135.9189189189189	51.95651944024712	5029	126098
98.5872790813446	25	124.07317	43.545544	212.0	26.0	124.07317073170732	43.5455411981427	5087	131185
103.26487016677856	26	136.62163	58.56498	346.0	26.0	136.6216216216216	58.56497955094645	5055	136240
106.34483790397644	27	154.5	77.18856	293.0	7.0	154.5	77.18855828043276	5253	141493
109.34398126602173	28	179.71428	74.9318	324.0	16.0	179.71428571428572	74.93180573163896	5032	146525
113.55280447006226	29	219.86957	75.31343	406.0	109.0	219.8695652173913	75.3134345356132	5057	151582
118.51511836051941	30	202.76	78.57596	402.0	71.0	202.76	78.5759657910738	5069	156651
122.1881365776062	31	219.47826	103.605804	553.0	116.0	219.47826086956522	103.6058037509891	5048	161699
127.98893594741821	32	207.0	94.84893	575.0	58.0	207.0	94.8489325190326	5175	166874
133.07563734054565	33	250.3	104.2416	606.0	142.0	250.3	104.24159438535081	5006	171880
137.75889110565186	34	267.5263	124.06084	572.0	130.0	267.5263157894737	124.06083754651337	5083	176963
142.82308650016785	35	343.6	184.09518	743.0	32.0	343.6	184.0951927672203	5154	182117
147.6674587726593	36	576.0	289.70865	1000.0	188.0	576.0	289.7086659233912	5184	187301
153.3183057308197	37	596.3	275.81155	1000.0	138.0	596.3	275.8115479815883	5963	193264
158.36589550971985	38	897.6667	141.93504	1000.0	680.0	897.6666666666666	141.93503991458755	5386	198650
163.62203192710876	39	798.4286	334.42142	1000.0	105.0	798.4285714285714	334.42140103376715	5589	204239
168.5619671344757	40	782.4286	288.6985	1000.0	255.0	782.4285714285714	288.6984868795308	5477	209716
173.91288685798645	41	931.8333	139.43985	1000.0	621.0	931.8333333333334	139.43985162865823	5591	215307
178.68252563476562	42	894.6667	187.77173	1000.0	486.0	894.6666666666666	187.7717290281533	5368	220675
183.32264924049377	43	889.3333	156.50737	1000.0	667.0	889.3333333333334	156.50736581885067	5336	226011
187.4426248073578	44	422.0	183.62508	800.0	161.0	422.0	183.62507090990235	5064	231075
191.66262531280518	45	531.3	198.41475	830.0	197.0	531.3	198.41474239582098	5313	236388
197.43685221672058	46	682.25	233.49077	954.0	272.0	682.25	233.49076534201518	5458	241846
202.39869666099548	47	855.3333	215.45276	1000.0	449.0	855.3333333333334	215.45275326365385	5132	246978
207.9506642818451	48	1000.0	0.0	1000.0	1000.0	1000.0	0.0	6000	252978
213.7204134464264	49	1000.0	0.0	1000.0	1000.0	1000.0	0.0	6000	258978
220.86369800567627	50	1000.0	0.0	1000.0	1000.0	1000.0	0.0	6000	264978
225.88208770751953	51	1000.0	0.0	1000.0	1000.0	1000.0	0.0	6000	270978
231.15206933021545	52	1000.0	0.0	1000.0	1000.0	1000.0	0.0	6000	276978
236.3319230079651	53	1000.0	0.0	1000.0	1000.0	1000.0	0.0	6000	282978
241.09965229034424	54	1000.0	0.0	1000.0	1000.0	1000.0	0.0	6000	288978
246.04030179977417	55	1000.0	0.0	1000.0	1000.0	1000.0	0.0	6000	294978
251.30221223831177	56	1000.0	0.0	1000.0	1000.0	1000.0	0.0	6000	300978
256.3027505874634	57	1000.0	0.0	1000.0	1000.0	1000.0	0.0	6000	306978
261.11180329322815	58	1000.0	0.0	1000.0	1000.0	1000.0	0.0	6000	312978
266.2605130672455	59	1000.0	0.0	1000.0	1000.0	1000.0	0.0	6000	318978
271.6618983745575	60	1000.0	0.0	1000.0	1000.0	1000.0	0.0	6000	324978
276.994731426239	61	1000.0	0.0	1000.0	1000.0	1000.0	0.0	6000	330978
281.9266104698181	62	940.8333	132.30069	1000.0	645.0	940.8333333333334	132.30068866873756	5645	336623
287.27688431739807	63	1000.0	0.0	1000.0	1000.0	1000.0	0.0	6000	342623
292.548791885376	64	974.0	58.137768	1000.0	844.0	974.0	58.137767414994535	5844	348467
297.8968725204468	65	1000.0	0.0	1000.0	1000.0	1000.0	0.0	6000	354467
303.1953845024109	66	1000.0	0.0	1000.0	1000.0	1000.0	0.0	6000	360467
308.19454431533813	67	1000.0	0.0	1000.0	1000.0	1000.0	0.0	6000	366467
313.4379827976227	68	1000.0	0.0	1000.0	1000.0	1000.0	0.0	6000	372467
318.46611189842224	69	1000.0	0.0	1000.0	1000.0	1000.0	0.0	6000	378467
323.27767300605774	70	1000.0	0.0	1000.0	1000.0	1000.0	0.0	6000	384467
328.31583738327026	71	1000.0	0.0	1000.0	1000.0	1000.0	0.0	6000	390467
332.71891617774963	72	848.0	339.88232	1000.0	88.0	848.0	339.882332579968	5088	395555
337.8188991546631	73	818.8571	312.10596	1000.0	134.0	818.8571428571429	312.1059474745388	5732	401287
342.9262614250183	74	1000.0	0.0	1000.0	1000.0	1000.0	0.0	6000	407287
347.55573177337646	75	902.5	218.01663	1000.0	415.0	902.5	218.0166278062295	5415	412702
352.3351893424988	76	888.8333	248.57622	1000.0	333.0	888.8333333333334	248.5762234987266	5333	418035
356.8190450668335	77	839.3333	336.54254	1000.0	88.0	839.3333333333334	336.54255137930016	5036	423071
361.8558158874512	78	847.2857	253.19147	1000.0	323.0	847.2857142857143	253.19146582645106	5931	429002
366.38280630111694	79	647.125	323.8466	1000.0	243.0	647.125	323.8465830837188	5177	434179
370.70871210098267	80	634.875	389.17938	1000.0	59.0	634.875	389.17940512699283	5079	439258
375.342324256897	81	940.0	134.16408	1000.0	640.0	940.0	134.16407864998737	5640	444898
380.18099427223206	82	1000.0	0.0	1000.0	1000.0	1000.0	0.0	6000	450898
385.3450963497162	83	1000.0	0.0	1000.0	1000.0	1000.0	0.0	6000	456898
390.66028904914856	84	1000.0	0.0	1000.0	1000.0	1000.0	0.0	6000	462898
395.6343550682068	85	1000.0	0.0	1000.0	1000.0	1000.0	0.0	6000	468898
400.7079088687897	86	1000.0	0.0	1000.0	1000.0	1000.0	0.0	6000	474898
405.69948291778564	87	1000.0	0.0	1000.0	1000.0	1000.0	0.0	6000	480898
410.87111616134644	88	1000.0	0.0	1000.0	1000.0	1000.0	0.0	6000	486898
415.5663044452667	89	898.0	228.07893	1000.0	388.0	898.0	228.07893370497854	5388	492286
419.9223656654358	90	732.2857	325.7329	1000.0	199.0	732.2857142857143	325.73289420527817	5126	497412
424.6218349933624	91	712.75	349.5607	1000.0	76.0	712.75	349.5607064588353	5702	503114
429.2069387435913	92	692.75	339.9694	1000.0	75.0	692.75	339.9693920046333	5542	508656
433.9980983734131	93	974.6667	35.9011	1000.0	920.0	974.6666666666666	35.901098714230024	5848	514504
439.0821135044098	94	1000.0	0.0	1000.0	1000.0	1000.0	0.0	6000	520504
444.14296793937683	95	981.5	41.367256	1000.0	889.0	981.5	41.36725758374611	5889	526393
448.83622455596924	96	886.6667	253.42104	1000.0	320.0	886.6666666666666	253.42103744997615	5320	531713
453.99150133132935	97	1000.0	0.0	1000.0	1000.0	1000.0	0.0	6000	537713
459.1962778568268	98	1000.0	0.0	1000.0	1000.0	1000.0	0.0	6000	543713
464.2789978981018	99	824.1429	288.29868	1000.0	242.0	824.1428571428571	288.2986688297044	5769	549482
