Time	Iteration	AverageReturn	StdReturn	MaxReturn	MinReturn	EpLenMean	EpLenStd	TimestepsThisBatch	TimestepsSoFar
46.77080774307251	0	-241.3067	126.79752	154.26312	-582.3718	127.3079365079365	62.6006524170762	40102	40102
91.59837508201599	1	-204.02028	116.69099	188.03384	-574.62335	122.75766871165644	36.86494402047261	40019	80121
138.9753532409668	2	-136.40906	109.66482	203.36378	-423.52078	134.86912751677852	66.63876111642075	40191	120312
190.15317583084106	3	-150.84782	104.905754	233.62811	-440.3294	137.37328767123287	70.42892831774269	40113	160425
238.92788529396057	4	-135.55759	94.47598	177.5842	-486.89233	143.275	50.78152873549875	40117	200542
293.1326160430908	5	-117.6517	109.10604	207.55818	-434.1137	157.90551181102362	86.16966719457079	40108	240650
346.9939856529236	6	-94.42041	117.34186	215.66925	-515.30225	169.11814345991561	80.95116754781827	40081	280731
406.27222442626953	7	-76.67209	119.56022	208.35939	-349.41666	185.25462962962962	126.48014401643597	40015	320746
476.7338466644287	8	-53.85575	139.6306	224.3695	-407.00394	231.95953757225433	167.06380901280528	40129	360875
548.6918375492096	9	-4.7685246	141.97458	221.02582	-387.36273	232.9593023255814	171.06857585782632	40069	400944
621.7465059757233	10	4.6795726	130.8734	259.79608	-343.8648	251.98742138364778	159.52665783109586	40066	441010
699.4330933094025	11	-13.625286	142.75069	224.58124	-369.55597	281.7112676056338	177.92950736556017	40003	481013
785.698032617569	12	-1.3678535	136.17432	221.1884	-428.34094	310.9465648854962	207.87240335356265	40734	521747
875.9173407554626	13	-2.6861818	133.82898	199.95145	-297.5978	340.546218487395	223.39691277401454	40525	562272
962.772289276123	14	30.25673	132.039	219.52274	-218.36708	337.52941176470586	212.2876130337169	40166	602438
1050.5118606090546	15	36.88979	122.15666	210.89789	-196.90503	360.44642857142856	245.665526074642	40370	642808
1135.8264999389648	16	81.53196	110.823906	208.2701	-152.64354	342.64957264957263	227.32044915137192	40090	682898
1225.03377866745	17	107.027565	108.27304	242.82767	-294.18494	337.0504201680672	227.27608238852122	40109	723007
1313.4419858455658	18	80.45569	126.91652	232.44347	-442.6772	336.14285714285717	263.6631185737558	40001	763008
1408.3109965324402	19	90.82678	113.51298	232.66849	-323.3052	374.1869158878505	299.1964356714926	40038	803046
1492.1625061035156	20	62.09757	125.031586	210.82146	-337.5383	309.26153846153846	259.55673913116254	40204	843250
1571.3776874542236	21	90.417336	111.89653	222.17574	-272.97308	294.90441176470586	245.0173126739172	40107	883357
1665.7098948955536	22	66.68234	113.11785	240.88614	-251.49062	382.2	326.898190063308	40131	923488
1756.1928038597107	23	85.07895	107.533806	221.98174	-302.1408	386.16346153846155	325.53054655725305	40161	963649
1842.5318825244904	24	73.8843	118.60159	233.05196	-287.04898	363.8454545454546	307.5476071458808	40023	1003672
1924.032879114151	25	101.010666	102.8271	221.16577	-113.112625	315.5275590551181	265.60449036770933	40072	1043744
2003.8450145721436	26	113.01346	112.38058	229.30064	-326.88705	325.9512195121951	265.02078009210254	40092	1083836
2088.5190551280975	27	103.03519	99.86282	237.71143	-97.48939	392.0	310.402244511953	40376	1124212
2165.3974237442017	28	129.51828	93.42371	247.37953	-91.62384	307.27272727272725	218.71848139716772	40560	1164772
2243.834061384201	29	117.66438	92.87003	227.74329	-82.7561	342.8205128205128	247.09044039191468	40110	1204882
2311.037840604782	30	145.63216	80.14864	260.1677	-277.14832	301.6842105263158	165.59786277819998	40124	1245006
2371.4913437366486	31	141.73575	87.16669	244.97781	-106.40256	255.6815286624204	113.41822937407852	40142	1285148
2436.2041912078857	32	140.7212	79.506645	243.02866	-93.52662	266.88079470198676	124.1947801076638	40299	1325447
2496.160716533661	33	149.98103	76.696846	253.23749	-98.56789	239.21428571428572	85.36114754502825	40188	1365635
2553.5588166713715	34	138.05646	94.91352	259.3187	-237.11713	216.01075268817203	50.75769863184503	40178	1405813
2608.4369633197784	35	153.3643	76.99367	243.54422	-98.32121	202.8181818181818	40.32854057082903	40158	1445971
2662.6369581222534	36	152.19617	83.800354	253.14462	-100.07547	194.60194174757282	36.928779474972764	40088	1486059
2718.089921474457	37	145.22421	91.30712	267.3958	-86.004875	197.99014778325125	44.13793763194884	40192	1526251
2772.48055434227	38	158.66891	71.37605	237.38022	-107.40991	203.0710659898477	36.99670756898354	40005	1566256
2827.7722318172455	39	162.69238	71.29085	249.43628	-171.5315	206.2577319587629	35.09333015916433	40014	1606270
2883.642916202545	40	161.10861	71.528305	273.63028	-108.913826	207.6580310880829	38.58302601716875	40078	1646348
2938.715131998062	41	175.54692	63.21617	251.61815	-94.60352	203.06060606060606	35.837404471147885	40206	1686554
2993.610974550247	42	165.28946	65.449814	253.25693	-100.17874	205.23076923076923	33.27851508218103	40020	1726574
3048.2242543697357	43	173.85968	67.47604	263.09174	-88.32667	197.05418719211823	32.16570427844704	40002	1766576
3102.9646468162537	44	169.53433	70.03092	257.12796	-85.31373	200.615	31.165153216372932	40123	1806699
3158.7062561511993	45	168.8964	66.81157	260.77618	-93.76644	207.57512953367876	42.574479732171554	40062	1846761
3218.012883901596	46	167.7663	67.481544	254.62524	-57.67873	200.52	32.93766233356581	40104	1886865
3274.493736743927	47	168.30804	64.52173	258.57544	-94.01669	208.51041666666666	46.42051782160976	40034	1926899
3329.185624361038	48	181.56404	53.66879	264.72815	-88.07127	205.36410256410255	42.88321342233319	40046	1966945
3383.4719281196594	49	173.56888	65.62024	252.45183	-218.4886	196.9558823529412	23.043288647075393	40179	2007124
3438.878331422806	50	180.00255	58.638844	266.73132	-66.88777	202.07035175879398	44.83240791407208	40212	2047336
3493.4709906578064	51	169.35257	68.82108	269.37997	-104.89946	194.63106796116506	28.03707333841624	40094	2087430
3548.0271837711334	52	172.44957	68.29977	247.3254	-85.95422	194.1304347826087	33.13181682740012	40185	2127615
3602.1417486667633	53	171.82268	74.90929	260.30786	-177.82095	193.2403846153846	38.67815801643582	40194	2167809
3656.2774386405945	54	177.78058	64.45588	271.90698	-129.21979	190.19431279620852	39.10388601283768	40131	2207940
3711.512132167816	55	176.43379	60.55807	253.33954	-57.58628	200.005	91.08630509028237	40001	2247941
3765.439757347107	56	175.89299	66.01431	260.88013	-150.42053	188.27230046948358	68.56429101718373	40102	2288043
3818.8570771217346	57	168.08253	78.32093	251.78531	-229.03378	184.1880733944954	47.95732473116865	40153	2328196
3875.634756088257	58	157.88434	91.786026	274.2925	-214.60974	195.66341463414633	95.66659012627686	40111	2368307
3929.37557721138	59	162.3157	76.91328	266.26935	-164.89503	186.10232558139535	52.09417897389078	40012	2408319
3983.545249938965	60	182.25293	51.75952	261.08182	-70.65144	182.22727272727272	36.86058725199564	40090	2448409
4038.9735491275787	61	176.69627	73.1828	262.89624	-381.57706	185.0	78.17845590533197	40145	2488554
4091.7203438282013	62	191.75185	47.704082	263.39435	-174.05754	178.2577777777778	24.02933844642502	40108	2528662
4145.765613079071	63	184.88211	63.28336	268.7079	-225.92047	179.20982142857142	51.21379986289519	40143	2568805
4199.206550836563	64	189.43625	55.781315	264.33002	-192.59256	174.1695652173913	28.354463413422902	40059	2608864
4252.076196193695	65	189.6721	55.95182	263.6217	-80.60973	170.0084745762712	27.546415609427658	40122	2648986
4305.1789791584015	66	178.71312	62.81708	249.79277	-133.1587	171.97424892703862	37.295585667378916	40070	2689056
4358.981643199921	67	188.93903	45.464375	278.57715	-64.91226	173.94805194805195	47.984908189492366	40182	2729238
4412.158935070038	68	190.36205	55.408848	269.11523	-256.91772	169.13924050632912	37.716598382091625	40086	2769324
4464.876868009567	69	187.94652	63.848957	262.031	-423.25504	169.24894514767934	26.830324194009307	40112	2809436
4519.917450428009	70	190.83383	61.25928	267.15305	-325.57938	179.16071428571428	66.76231207631676	40132	2849568
4580.107475042343	71	185.05261	76.05169	261.8485	-433.05588	190.24644549763033	119.1557423013447	40142	2889710
4646.290757656097	72	186.57463	58.432056	267.2541	-169.66014	215.33684210526314	177.85183724403956	40914	2930624
4729.918482542038	73	178.02597	62.436745	250.99448	-66.91362	261.8888888888889	253.5803118982733	40069	2970693
4810.697065830231	74	181.43779	69.523834	266.86417	-110.526474	244.140243902439	228.31799837163146	40039	3010732
4886.580035686493	75	177.08714	85.23789	255.09991	-289.04242	233.37714285714284	202.5118424554324	40841	3051573
4951.937873125076	76	193.08972	43.603085	262.61487	-30.457783	208.86528497409327	148.91581405510965	40311	3091884
5012.808549165726	77	192.76114	58.700134	258.49365	-291.09836	199.40796019900498	126.21774100969505	40081	3131965
5067.271060228348	78	190.07759	52.03986	266.48187	-294.82507	185.47465437788017	55.49077685638205	40248	3172213
5119.867424488068	79	189.50053	48.337025	249.12828	-295.43265	172.82758620689654	32.86001549469407	40096	3212309
5171.552498340607	80	194.55304	56.999336	267.6952	-342.6999	166.4232365145228	18.255543110388807	40108	3252417
5223.404402971268	81	184.4375	56.322243	266.88663	-239.56041	166.7875	42.9427022564176	40029	3292446
5274.309639453888	82	177.6802	69.2959	264.779	-154.75311	157.61417322834646	21.51470738274791	40034	3332480
5324.507180690765	83	180.22592	70.30087	253.08655	-335.21057	157.22745098039215	17.62783091915349	40093	3372573
5375.07424902916	84	178.95161	62.002205	256.43762	-117.491234	155.77431906614785	35.655556620554144	40034	3412607
5425.829847574234	85	183.0655	60.86861	258.02927	-295.30646	159.0595238095238	27.273897861052927	40083	3452690
5477.602264404297	86	180.32877	67.957275	272.84152	-180.1134	163.0487804878049	29.271466630071536	40110	3492800
5529.072670221329	87	187.68109	50.866055	270.43524	-99.52907	160.564	18.2554623058415	40141	3532941
5581.9044625759125	88	180.97432	64.91097	269.24008	-341.0033	165.22633744855966	35.77067743210872	40150	3573091
5634.3466992378235	89	197.29799	43.608982	273.129	-116.50685	168.10878661087867	18.0898699718604	40178	3613269
5686.521555900574	90	193.79967	35.216038	273.9259	-27.837822	168.2689075630252	22.278111305593136	40048	3653317
5743.834092617035	91	192.45815	46.065876	262.63867	-147.67477	178.66964285714286	87.72978892119917	40022	3693339
5796.944853305817	92	195.07158	46.907703	267.59497	-326.4182	166.9875	16.802400932108878	40077	3733416
5850.461097717285	93	196.98975	35.49993	271.61505	-73.28883	167.27083333333334	18.022601069367195	40145	3773561
5903.161366939545	94	195.91637	39.2648	252.51054	-95.25991	165.41735537190084	17.1597798907359	40031	3813592
5955.458362817764	95	191.5981	39.889256	268.2851	-96.05699	161.375	16.966300207821842	40021	3853613
6007.433127164841	96	178.22566	75.712585	257.66147	-340.49142	159.1706349206349	30.327816262952652	40111	3893724
6059.456558465958	97	178.94588	68.319695	256.31317	-335.03275	155.1627906976744	18.10618580223427	40032	3933756
6110.128367424011	98	185.33678	56.810383	263.90045	-343.2466	155.08139534883722	30.709017607114802	40011	3973767
6162.297512769699	99	186.65968	46.014145	257.23993	-76.62162	155.92217898832683	55.896877103825595	40072	4013839
