Time	Iteration	AverageReturn	StdReturn	MaxReturn	MinReturn	EpLenMean	EpLenStd	TimestepsThisBatch	TimestepsSoFar
10.304811477661133	0	13.944445	8.841017	44.0	2.0	13.944444444444445	8.84101692379975	1004	1004
11.459810018539429	1	21.782608	13.21875	54.0	5.0	21.782608695652176	13.218749930172903	1002	2006
12.488521814346313	2	39.615383	20.367918	80.0	8.0	39.61538461538461	20.3679176894919	1030	3036
13.462055921554565	3	41.32	21.28045	83.0	13.0	41.32	21.280451123037782	1033	4069
14.414074420928955	4	44.913044	20.36816	93.0	13.0	44.91304347826087	20.36816152186344	1033	5102
15.420912265777588	5	63.47059	20.436754	107.0	25.0	63.470588235294116	20.436753647631495	1079	6181
16.37795853614807	6	53.526318	25.33433	94.0	13.0	53.526315789473685	25.33432957170261	1017	7198
17.325562715530396	7	64.9375	32.25963	148.0	17.0	64.9375	32.25962792330377	1039	8237
18.25385594367981	8	67.53333	36.25625	146.0	11.0	67.53333333333333	36.25624850361046	1013	9250
19.21822476387024	9	80.23077	41.928795	177.0	29.0	80.23076923076923	41.928792835461564	1043	10293
20.199636697769165	10	94.72727	49.945595	188.0	27.0	94.72727272727273	49.945590230480555	1042	11335
21.24795174598694	11	84.5	50.19379	215.0	15.0	84.5	50.193791116697554	1014	12349
22.25355553627014	12	111.22222	53.611313	207.0	27.0	111.22222222222223	53.61131260756607	1001	13350
23.474377632141113	13	77.15385	26.54125	128.0	27.0	77.15384615384616	26.54124846013249	1003	14353
24.535840034484863	14	104.2	41.01414	177.0	63.0	104.2	41.01414390182977	1042	15395
25.542670726776123	15	113.0	42.58586	168.0	35.0	113.0	42.58586098173378	1017	16412
27.029431343078613	16	99.545456	43.22744	215.0	46.0	99.54545454545455	43.22744001497121	1095	17507
28.395296335220337	17	85.75	27.04356	142.0	28.0	85.75	27.043560539741556	1029	18536
