{"animate"	:	false,
"env_name"	:	"InvertedPendulum-v2",
"exp_name"	:	"hc_b1000_r0.05",
"gamma"	:	0.9,
"learning_rate"	:	0.005,
"logdir"	:	"data/hc_b1000_r0.05_InvertedPendulum-v2_22-10-2018_22-47-26/21",
"max_path_length"	:	1000.0,
"min_timesteps_per_batch"	:	1000,
"n_iter"	:	100,
"n_layers"	:	2,
"nn_baseline"	:	false,
"normalize_advantages"	:	true,
"reward_to_go"	:	true,
"seed"	:	21,
"size"	:	64}