Time	Iteration	AverageReturn	StdReturn	MaxReturn	MinReturn	EpLenMean	EpLenStd	TimestepsThisBatch	TimestepsSoFar
2.996265172958374	0	16.442623	6.5412297	55.0	8.0	16.442622950819672	6.541230119846322	4012	4012
5.49568510055542	1	25.56962	14.607683	107.0	8.0	25.569620253164558	14.607682688458098	4040	8052
7.8509681224823	2	42.37895	22.57114	107.0	10.0	42.37894736842105	22.571140841613804	4026	12078
10.135921478271484	3	58.04348	28.614597	173.0	14.0	58.04347826086956	28.61459786699976	4005	16083
12.427380800247192	4	77.25	34.412025	180.0	25.0	77.25	34.412025514346	4017	20100
14.807848453521729	5	94.209305	39.538357	200.0	43.0	94.20930232558139	39.53835826045202	4051	24151
17.182673454284668	6	120.05882	41.562103	200.0	32.0	120.05882352941177	41.562101781530124	4082	28233
19.557962656021118	7	144.25	30.893394	200.0	76.0	144.25	30.893393884684887	4039	32272
21.970478057861328	8	141.44827	33.81653	200.0	76.0	141.44827586206895	33.81652952981931	4102	36374
24.359886169433594	9	138.86208	34.888714	200.0	86.0	138.86206896551724	34.888713853337606	4027	40401
26.751822233200073	10	147.35715	38.88556	200.0	90.0	147.35714285714286	38.88555946227182	4126	44527
29.056133031845093	11	160.56	37.167816	200.0	84.0	160.56	37.16781403311203	4014	48541
31.469656705856323	12	172.54167	32.731205	200.0	94.0	172.54166666666666	32.73120219640919	4141	52682
33.88542580604553	13	186.36363	20.805475	200.0	115.0	186.36363636363637	20.805474486178902	4100	56782
36.26614785194397	14	195.80952	15.539868	200.0	128.0	195.8095238095238	15.539868993806587	4112	60894
38.66308379173279	15	191.66667	21.341516	200.0	110.0	191.66666666666666	21.341516287750444	4025	64919
41.18447756767273	16	200.0	0.0	200.0	200.0	200.0	0.0	4200	69119
43.662036180496216	17	200.0	0.0	200.0	200.0	200.0	0.0	4200	73319
46.16530156135559	18	198.2381	7.8794775	200.0	163.0	198.23809523809524	7.879477634999259	4163	77482
48.60876441001892	19	200.0	0.0	200.0	200.0	200.0	0.0	4200	81682
51.099984645843506	20	200.0	0.0	200.0	200.0	200.0	0.0	4200	85882
53.55045032501221	21	200.0	0.0	200.0	200.0	200.0	0.0	4200	90082
56.07222318649292	22	200.0	0.0	200.0	200.0	200.0	0.0	4200	94282
58.54725527763367	23	197.61905	7.448082	200.0	166.0	197.61904761904762	7.448081827054153	4150	98432
61.04401612281799	24	195.61905	10.952174	200.0	163.0	195.61904761904762	10.952173911086547	4108	102540
63.4538950920105	25	187.36363	18.139723	200.0	147.0	187.36363636363637	18.139723999467563	4122	106662
65.83705639839172	26	182.0	21.767365	200.0	122.0	182.0	21.76736506374122	4004	110666
68.22096180915833	27	178.52174	24.771774	200.0	138.0	178.52173913043478	24.771774901246662	4106	114772
70.61888909339905	28	174.26086	25.002987	200.0	103.0	174.2608695652174	25.002986589091535	4008	118780
73.17516374588013	29	167.48	25.520376	200.0	131.0	167.48	25.52037617277614	4187	122967
75.65077877044678	30	155.26923	28.140524	200.0	111.0	155.26923076923077	28.14052332943433	4037	127004
78.47201180458069	31	156.65384	27.133493	200.0	108.0	156.65384615384616	27.133490954186982	4073	131077
81.10716438293457	32	149.37038	26.37219	200.0	111.0	149.37037037037038	26.372190948390717	4033	135110
83.72219824790955	33	155.96153	24.331812	200.0	122.0	155.96153846153845	24.33181008984989	4055	139165
86.2938244342804	34	149.55556	31.862358	200.0	107.0	149.55555555555554	31.862358301657615	4038	143203
88.68427610397339	35	167.91667	27.49381	200.0	129.0	167.91666666666666	27.493812435204802	4030	147233
91.13264274597168	36	184.04546	23.211435	200.0	133.0	184.04545454545453	23.211433845349255	4049	151282
93.50810194015503	37	193.57143	11.008965	200.0	165.0	193.57142857142858	11.008963571179834	4065	155347
95.91536569595337	38	195.04762	9.015733	200.0	174.0	195.04761904761904	9.015733287537856	4096	159443
98.4877200126648	39	199.14285	3.4126613	200.0	184.0	199.14285714285714	3.412661498508365	4182	163625
100.91547679901123	40	198.90475	4.8980536	200.0	177.0	198.9047619047619	4.898053664999539	4177	167802
103.3738751411438	41	199.38095	2.7684653	200.0	187.0	199.38095238095238	2.7684651149997395	4187	171989
105.86306357383728	42	200.0	0.0	200.0	200.0	200.0	0.0	4200	176189
108.34135866165161	43	200.0	0.0	200.0	200.0	200.0	0.0	4200	180389
110.81394100189209	44	199.85715	0.63887656	200.0	197.0	199.85714285714286	0.6388765649999399	4197	184586
113.28928089141846	45	199.7619	1.0647942	200.0	195.0	199.76190476190476	1.0647942749998998	4195	188781
116.00468182563782	46	199.2381	3.4073415	200.0	184.0	199.23809523809524	3.407341679999679	4184	192965
119.04381799697876	47	199.85715	0.63887656	200.0	197.0	199.85714285714286	0.6388765649999399	4197	197162
121.63895082473755	48	200.0	0.0	200.0	200.0	200.0	0.0	4200	201362
124.17960524559021	49	200.0	0.0	200.0	200.0	200.0	0.0	4200	205562
126.6840009689331	50	200.0	0.0	200.0	200.0	200.0	0.0	4200	209762
129.16082882881165	51	200.0	0.0	200.0	200.0	200.0	0.0	4200	213962
131.68391919136047	52	200.0	0.0	200.0	200.0	200.0	0.0	4200	218162
134.1612367630005	53	200.0	0.0	200.0	200.0	200.0	0.0	4200	222362
136.64623284339905	54	200.0	0.0	200.0	200.0	200.0	0.0	4200	226562
139.1298987865448	55	200.0	0.0	200.0	200.0	200.0	0.0	4200	230762
141.67031741142273	56	200.0	0.0	200.0	200.0	200.0	0.0	4200	234962
144.13689470291138	57	200.0	0.0	200.0	200.0	200.0	0.0	4200	239162
146.61491417884827	58	200.0	0.0	200.0	200.0	200.0	0.0	4200	243362
149.10327172279358	59	200.0	0.0	200.0	200.0	200.0	0.0	4200	247562
151.59215092658997	60	200.0	0.0	200.0	200.0	200.0	0.0	4200	251762
154.1280963420868	61	198.95238	4.685095	200.0	178.0	198.95238095238096	4.685094809999559	4178	255940
156.59620070457458	62	200.0	0.0	200.0	200.0	200.0	0.0	4200	260140
159.07378888130188	63	200.0	0.0	200.0	200.0	200.0	0.0	4200	264340
161.52375483512878	64	199.71428	1.2777531	200.0	194.0	199.71428571428572	1.2777531299998799	4194	268534
164.05942344665527	65	200.0	0.0	200.0	200.0	200.0	0.0	4200	272734
166.52799105644226	66	198.85715	5.111012	200.0	176.0	198.85714285714286	5.11101251999952	4176	276910
168.97225165367126	67	196.5238	6.3442435	200.0	173.0	196.52380952380952	6.3442440926067745	4127	281037
171.23299527168274	68	193.04762	8.812741	200.0	175.0	193.04761904761904	8.812740725391308	4054	285091
173.5931487083435	69	188.18182	10.395087	200.0	162.0	188.1818181818182	10.395087841844791	4140	289231
176.0366439819336	70	178.86957	9.741459	196.0	162.0	178.8695652173913	9.741459348873077	4114	293345
178.43549299240112	71	176.43478	14.969028	200.0	151.0	176.43478260869566	14.969029148491668	4058	297403
180.69588136672974	72	174.52174	16.470974	200.0	145.0	174.52173913043478	16.470974642414987	4014	301417
183.03690886497498	73	167.41667	16.441605	200.0	146.0	167.41666666666666	16.44160542309932	4018	305435
185.36085295677185	74	168.91667	16.550217	196.0	140.0	168.91666666666666	16.55021819258653	4054	309489
187.7455928325653	75	175.78261	18.30884	200.0	138.0	175.7826086956522	18.308839684316734	4043	313532
190.2555193901062	76	181.60869	20.952822	200.0	140.0	181.6086956521739	20.952823054444256	4177	317709
192.74853944778442	77	187.63637	14.971322	200.0	152.0	187.63636363636363	14.971322448860974	4128	321837
195.0979573726654	78	189.0	16.599562	200.0	147.0	189.0	16.599561878117584	4158	325995
197.5418839454651	79	194.0	10.396886	200.0	165.0	194.0	10.396885980678931	4074	330069
199.93038129806519	80	188.95454	16.595392	200.0	147.0	188.95454545454547	16.59539167339501	4157	334226
202.28000903129578	81	195.71428	8.390147	200.0	175.0	195.71428571428572	8.390146472090297	4110	338336
204.58129835128784	82	191.14285	10.864033	200.0	170.0	191.14285714285714	10.864032901476032	4014	342350
206.9817759990692	83	186.68182	13.5458355	200.0	154.0	186.6818181818182	13.545835870166433	4107	346457
209.32501649856567	84	188.72728	14.476256	200.0	156.0	188.72727272727272	14.476255851257754	4152	350609
211.76956725120544	85	194.95238	11.441263	200.0	157.0	194.95238095238096	11.441262794423773	4094	354703
214.17335653305054	86	194.5238	10.298493	200.0	163.0	194.52380952380952	10.2984929439263	4085	358788
216.61998176574707	87	195.5238	9.297307	200.0	168.0	195.52380952380952	9.297306561421546	4106	362894
219.32634210586548	88	197.19048	6.060167	200.0	177.0	197.1904761904762	6.060166959974488	4141	367035
221.83253455162048	89	198.90475	4.898053	200.0	177.0	198.9047619047619	4.898053664999539	4177	371212
224.32684302330017	90	199.80952	0.85183537	200.0	196.0	199.8095238095238	0.85183541999992	4196	375408
226.80860090255737	91	199.14285	3.0595002	200.0	186.0	199.14285714285714	3.0595006484207636	4182	379590
229.2803337574005	92	198.80952	5.3239713	200.0	175.0	198.8095238095238	5.323971374999498	4175	383765
231.79539275169373	93	200.0	0.0	200.0	200.0	200.0	0.0	4200	387965
234.22681760787964	94	200.0	0.0	200.0	200.0	200.0	0.0	4200	392165
236.67840957641602	95	200.0	0.0	200.0	200.0	200.0	0.0	4200	396365
239.19229793548584	96	199.5238	2.1295884	200.0	190.0	199.52380952380952	2.1295885499997995	4190	400555
241.65541338920593	97	199.42857	2.555506	200.0	188.0	199.42857142857142	2.5555062599997593	4188	404743
244.12830710411072	98	200.0	0.0	200.0	200.0	200.0	0.0	4200	408943
246.5933699607849	99	199.90475	0.42591769	200.0	198.0	199.9047619047619	0.42591770999996	4198	413141
