Time	Iteration	AverageReturn	StdReturn	MaxReturn	MinReturn	EpLenMean	EpLenStd	TimestepsThisBatch	TimestepsSoFar
43.77238655090332	0	-368.50223	170.65598	131.65556	-835.8191	107.70698924731182	43.70044234132924	40067	40067
85.18556308746338	1	-251.92946	137.44026	115.72536	-623.8832	105.06824146981627	30.455691567851083	40031	80098
124.37601518630981	2	-180.44286	108.98526	131.52704	-690.67175	99.35235732009926	26.186862638354835	40039	120137
165.82231330871582	3	-173.70827	84.403175	137.76714	-568.0735	102.61282051282052	54.56989251380091	40019	160156
206.91829085350037	4	-169.21608	94.25219	122.82077	-474.8443	98.30466830466831	28.290968906982933	40010	200166
249.61761617660522	5	-165.85649	79.664444	157.52306	-414.69788	98.34398034398035	67.89987285727427	40026	240192
292.6548752784729	6	-159.14069	86.584435	153.53693	-428.91385	102.11479591836735	69.28670533502688	40029	280221
336.90400791168213	7	-146.32591	87.19592	175.44969	-437.69852	103.66062176165804	72.28356189218034	40013	320234
376.45096230506897	8	-132.26866	87.21346	214.9944	-343.90524	103.6839378238342	26.7476908312554	40022	360256
420.52229285240173	9	-108.0183	90.39407	151.85678	-411.3935	109.62191780821918	71.56091044118519	40012	400268
461.90024495124817	10	-101.747604	88.93611	230.0624	-419.65866	112.41011235955057	31.15357589424706	40018	440286
504.63608026504517	11	-89.27238	94.91243	210.90956	-338.62286	118.30383480825958	32.179791062806295	40105	480391
551.4976441860199	12	-65.79301	100.05835	215.73645	-362.53577	131.11111111111111	59.66732999473056	40120	520511
605.2962183952332	13	-47.05936	105.7213	216.02275	-316.88068	153.367816091954	107.4605993847734	40029	560540
661.4801483154297	14	-26.369335	121.05208	238.54257	-290.3657	174.2	109.96281584956442	40066	600606
730.2892687320709	15	-24.82216	125.4562	257.69022	-270.69928	217.29032258064515	169.74811070861216	40416	641022
807.4352743625641	16	-54.895428	119.48696	230.88052	-293.19678	258.8451612903226	210.56713409375607	40121	681143
894.5393712520599	17	-32.700657	130.58633	200.36633	-339.88055	327.2113821138211	251.869893243476	40247	721390
996.5725138187408	18	-40.450443	132.57674	213.266	-316.72092	400.52	280.9807281647622	40052	761442
1100.9257395267487	19	-25.851744	143.52565	242.3426	-485.69144	450.69662921348316	280.945650487712	40112	801554
1219.1912834644318	20	6.5760064	144.55461	254.82976	-402.59305	536.3815789473684	304.35816708475414	40765	842319
1333.7105114459991	21	-13.09473	141.40472	247.59445	-383.6597	573.6714285714286	284.3525337840121	40157	882476
1449.8795115947723	22	1.4369112	156.73433	241.5464	-353.02615	604.2089552238806	288.00132344811135	40482	922958
1570.076833486557	23	11.899227	140.82324	190.48405	-369.9549	624.6769230769231	275.0881876888158	40604	963562
1689.0239050388336	24	20.78973	129.51657	212.11351	-324.38916	671.0166666666667	272.24985409648167	40261	1003823
1815.5898094177246	25	33.62671	126.29611	189.57426	-344.1044	637.78125	294.19686588819656	40818	1044641
1930.0971026420593	26	26.551674	133.24046	213.38301	-392.16177	567.7183098591549	298.8631126239641	40308	1084949
2048.00311088562	27	24.661175	124.25847	240.24017	-267.4553	630.203125	317.40865712080756	40333	1125282
2146.542387008667	28	69.72554	137.86372	236.46365	-305.4137	448.0	266.6249133979127	40320	1165602
2262.2716500759125	29	60.05674	111.91195	219.74207	-145.29659	533.8266666666667	320.56268750779816	40037	1205639
2367.222225666046	30	80.42636	110.31364	210.39389	-137.31569	434.8817204301075	277.22033663171504	40444	1246083
2458.1919429302216	31	107.25056	106.03905	238.51584	-248.27635	393.5	240.4324841026368	40137	1286220
2537.288756132126	32	107.2336	101.942184	240.78369	-111.172585	331.5702479338843	230.94809357241274	40120	1326340
2614.415735721588	33	116.82876	103.42953	247.23782	-96.13774	287.9712230215827	177.5344709641443	40028	1366368
2681.457589864731	34	155.51999	80.45475	255.18088	-95.75774	262.8627450980392	130.5129176900421	40218	1406586
2747.062400341034	35	143.41422	83.13353	260.41476	-93.42099	254.31645569620252	131.0292792000745	40182	1446768
2816.7684166431427	36	145.70677	76.89212	238.96103	-156.57126	262.36601307189545	161.2466851920113	40142	1486910
2879.8349130153656	37	123.976814	89.91603	244.9255	-144.25948	234.74269005847952	111.05166276688476	40141	1527051
2953.3187482357025	38	128.00906	95.03741	235.48653	-168.12396	269.7718120805369	194.6387505926989	40196	1567247
3020.0704457759857	39	127.7629	97.14727	245.52965	-335.6014	239.3095238095238	141.22352058506368	40204	1607451
3083.0657229423523	40	136.12093	89.57239	251.8145	-116.11986	217.07027027027027	130.6614789795223	40158	1647609
3140.0038681030273	41	142.52245	91.99352	229.2919	-155.43193	205.28205128205127	93.11017700798828	40030	1687639
3200.508449077606	42	148.87454	92.09042	250.03313	-187.09177	193.72946859903382	87.11125792459627	40102	1727741
3259.097399711609	43	164.94806	70.001274	263.27902	-84.34575	194.78846153846155	98.99151800075941	40516	1768257
3318.280426263809	44	152.12259	77.634415	250.92871	-83.30059	205.7948717948718	131.44978167310373	40130	1808387
3370.7802913188934	45	155.86752	82.65039	250.27219	-113.160164	189.37264150943398	68.40492511372906	40147	1848534
3425.3591389656067	46	170.08185	67.42362	259.63272	-80.40133	192.7403846153846	72.82268972177292	40090	1888624
3477.9010071754456	47	174.75354	63.997444	263.9782	-160.9182	189.1933962264151	28.446164873543427	40109	1928733
3530.443950176239	48	172.63248	61.285126	255.93163	-93.63336	191.55980861244018	61.5979207376176	40036	1968769
3585.7557752132416	49	184.85857	48.58945	257.05902	-52.599346	198.16336633663366	84.92832181371253	40029	2008798
3638.5974040031433	50	181.76451	54.138668	250.77145	-83.34481	185.4814814814815	25.10956785381247	40064	2048862
3690.5851912498474	51	175.27066	68.91509	252.7202	-366.57553	187.25233644859813	27.186649231013497	40072	2088934
3744.341341495514	52	174.29955	65.10859	243.3908	-104.60562	190.7772511848341	62.09702432773013	40254	2129188
3798.9472455978394	53	185.25493	40.88008	280.11072	-76.40618	192.12918660287082	61.4912570889671	40155	2169343
3851.2889392375946	54	184.83542	57.6474	256.46213	-331.57666	190.5095238095238	41.318189292851514	40007	2209350
3905.9213030338287	55	182.79117	48.56533	271.74713	-73.14465	196.67156862745097	63.06388742806305	40121	2249471
3958.320186853409	56	186.88744	37.39272	246.45639	-62.865158	194.46116504854368	27.512679276521922	40059	2289530
4009.9427473545074	57	183.68602	48.42865	271.64587	-80.27289	184.43778801843317	23.47048446858494	40023	2329553
4062.7285788059235	58	183.76506	51.742447	258.76526	-60.59113	185.875	24.962715252507646	40149	2369702
4119.175928115845	59	170.32819	66.14253	252.76819	-75.840546	203.72081218274113	129.443315008368	40133	2409835
4174.792859554291	60	164.29796	85.79575	257.2351	-352.91235	186.29302325581395	80.82391252003315	40053	2449888
4226.3802745342255	61	173.69499	68.08878	269.4889	-135.96089	182.72602739726028	28.535611144612087	40017	2489905
4280.776471614838	62	170.52599	76.07714	256.30197	-355.90274	192.75	83.56155607602192	40092	2529997
4339.5076858997345	63	173.64691	70.523285	251.39816	-167.0694	206.6958762886598	128.9987024769124	40099	2570096
4398.042855501175	64	178.45064	63.656105	256.7724	-228.06491	212.05820105820106	143.69025990835635	40079	2610175
4460.874598026276	65	167.63521	71.676605	269.00827	-243.00523	225.52808988764045	171.05381175036408	40144	2650319
4521.597905635834	66	180.58594	75.455826	276.84637	-348.4787	213.99465240641712	131.46384783244125	40017	2690336
4576.783842086792	67	190.93051	42.036167	266.5598	-112.75257	202.5151515151515	83.36034273039284	40098	2730434
4630.2436311244965	68	190.99901	45.14884	261.59912	-148.59561	195.70731707317074	22.1463468357144	40120	2770554
4683.870315790176	69	196.12521	33.40165	261.18228	-43.99476	198.45049504950495	20.21860785799364	40087	2810641
4739.4642543792725	70	193.9152	34.092934	254.70682	-101.9167	201.70854271356785	61.6158913570644	40140	2850781
4793.287087678909	71	179.16698	60.993805	250.12723	-87.03859	196.77941176470588	28.971679336475265	40143	2890924
4846.854183673859	72	188.56631	46.950745	247.02014	-92.49153	192.12918660287082	25.986149417321183	40155	2931079
4897.984976768494	73	196.88568	22.770794	257.6117	149.91766	183.77522935779817	20.222839553986827	40063	2971142
4954.0808482170105	74	181.22893	60.209927	269.84848	-182.63835	180.7027027027027	59.35419634133739	40116	3011258
5007.451330423355	75	175.85919	66.31798	264.002	-92.1416	180.6936936936937	81.07940638911141	40114	3051372
5068.535805463791	76	164.52686	75.300575	256.76697	-82.448425	207.41450777202073	180.77024090479728	40031	3091403
5137.9809923172	77	149.40424	85.461044	252.71497	-92.800156	240.09467455621302	241.69145675322835	40576	3131979
5205.500240802765	78	149.10999	88.58975	260.3062	-79.16373	210.60732984293193	206.43142884595684	40226	3172205
5265.859117031097	79	153.93866	90.231094	271.80832	-101.623695	188.25352112676057	156.44969957462794	40098	3212303
5330.723407506943	80	150.96837	86.77135	254.74855	-71.45744	208.2642487046632	188.522830537211	40195	3252498
5396.5251121521	81	169.49986	73.75617	265.5793	-229.98624	188.28240740740742	152.9799940495148	40669	3293167
5450.994772195816	82	174.03569	75.44411	268.70435	-391.45422	166.03734439834025	79.21436497153812	40015	3333182
5502.64179110527	83	162.01021	89.344955	274.60452	-418.95227	160.504	56.972642417216356	40126	3373308
5553.6715404987335	84	185.50523	56.704052	257.14984	-119.69093	165.92561983471074	25.105122880873115	40154	3413462
5609.581508636475	85	187.4178	54.236492	263.72083	-81.43277	172.91810344827587	80.47465450123255	40117	3453579
5665.969607114792	86	189.838	45.853313	287.95734	-104.44417	176.0921052631579	82.67185889686166	40149	3493728
5725.028790950775	87	179.7446	57.58433	252.23862	-85.81027	180.0627802690583	82.18520922095185	40154	3533882
5778.750970125198	88	186.12122	50.274	261.54047	-79.67764	170.89787234042552	52.142503140633146	40161	3574043
5830.9798238277435	89	192.5211	39.02591	246.39738	-79.75867	168.35294117647058	17.967331809645092	40068	3614111
5883.154839038849	90	196.03354	36.077198	268.69827	-52.850975	165.56611570247935	17.000418340594095	40067	3654178
5938.726773023605	91	189.33878	50.393436	255.12349	-156.47318	174.6812227074236	58.90135819111697	40002	3694180
5990.815976142883	92	185.73755	64.08535	253.19604	-360.9385	167.84518828451883	19.964327178559824	40115	3734295
6042.349326133728	93	182.53836	53.382107	255.93222	-46.79918	167.53556485355648	18.2822418466761	40041	3774336
6097.895905971527	94	192.39908	47.692947	269.02826	-314.94455	170.40851063829788	56.93126811578294	40046	3814382
6156.569372653961	95	190.05223	43.7705	267.6541	-68.048065	172.63793103448276	88.81464586349097	40052	3854434
6200.518196105957	96	184.40514	63.152836	274.32166	-230.70813	171.9785407725322	86.1477145608107	40071	3894505
6245.6997590065	97	188.58868	44.49076	265.87244	-62.409832	173.24242424242425	98.13371971331973	40019	3934524
6297.372105360031	98	175.85553	76.80266	257.2128	-460.12714	176.80349344978166	125.53772823539238	40488	3975012
6359.411576747894	99	176.04218	69.07735	262.0079	-94.22092	204.71212121212122	193.98769344113447	40533	4015545
