{"animate"	:	false,
"env_name"	:	"CartPole-v0",
"exp_name"	:	"lb_rtg_na",
"gamma"	:	1.0,
"learning_rate"	:	0.005,
"logdir"	:	"data/lb_rtg_na_CartPole-v0_01-10-2018_10-09-03/21",
"max_path_length"	:	null,
"min_timesteps_per_batch"	:	4000,
"n_iter"	:	100,
"n_layers"	:	2,
"nn_baseline"	:	false,
"normalize_advantages"	:	true,
"reward_to_go"	:	true,
"seed"	:	21,
"size"	:	64}