{"animate"	:	false,
"env_name"	:	"HalfCheetah-v2",
"exp_name"	:	"ant_10000_0.01",
"gamma"	:	0.9,
"learning_rate"	:	0.01,
"logdir"	:	"data/ant_10000_0.01_HalfCheetah-v2_22-10-2018_22-44-17/21",
"max_path_length"	:	150.0,
"min_timesteps_per_batch"	:	10000,
"n_iter"	:	100,
"n_layers"	:	2,
"nn_baseline"	:	false,
"normalize_advantages"	:	true,
"reward_to_go"	:	true,
"seed"	:	21,
"size"	:	32}